8.000000000000000000e+01,3.000000000000000000e+01,3.842000000000000171e+01
8.700000000000000000e+01,4.900000000000000000e+01,3.955805555999999967e+01
7.900000000000000000e+01,4.200000000000000000e+01,2.077388888999999850e+01
8.200000000000000000e+01,3.300000000000000000e+01,3.602388889000000205e+01
8.900000000000000000e+01,4.900000000000000000e+01,4.029611110999999823e+01
8.500000000000000000e+01,4.800000000000000000e+01,2.440500000000000114e+01
7.900000000000000000e+01,3.400000000000000000e+01,3.815194444000000118e+01
7.900000000000000000e+01,4.300000000000000000e+01,3.044805556000000024e+01
7.800000000000000000e+01,4.200000000000000000e+01,4.310999999999999943e+01
9.400000000000000000e+01,3.700000000000000000e+01,3.589999999999999858e+01
7.900000000000000000e+01,4.000000000000000000e+01,3.209111110999999994e+01
8.000000000000000000e+01,3.500000000000000000e+01,7.769611111000000392e+01
8.200000000000000000e+01,3.600000000000000000e+01,2.169999999999999929e+01
8.200000000000000000e+01,3.900000000000000000e+01,4.089805556000000308e+01
7.800000000000000000e+01,3.900000000000000000e+01,3.580499999999999972e+01
8.300000000000000000e+01,3.700000000000000000e+01,3.652388889000000205e+01
8.200000000000000000e+01,3.800000000000000000e+01,2.942388889000000063e+01
8.300000000000000000e+01,3.400000000000000000e+01,3.804194444000000175e+01
8.200000000000000000e+01,4.000000000000000000e+01,1.633500000000000085e+01
8.200000000000000000e+01,4.100000000000000000e+01,1.717194444000000075e+01
