6.200000000000000000e+01,6.000000000000000000e+01,1.082638888999999978e+02
7.100000000000000000e+01,5.700000000000000000e+01,4.480805555999999967e+01
6.500000000000000000e+01,5.700000000000000000e+01,6.513388888999999438e+01
6.900000000000000000e+01,5.600000000000000000e+01,3.064000000000000057e+01
7.400000000000000000e+01,5.800000000000000000e+01,2.921999999999999886e+02
6.600000000000000000e+01,5.500000000000000000e+01,3.595194443999999834e+01
6.200000000000000000e+01,6.500000000000000000e+01,7.032999999999999829e+01
8.000000000000000000e+01,5.600000000000000000e+01,1.813680555999999910e+02
6.700000000000000000e+01,6.500000000000000000e+01,1.149388888999999949e+02
5.700000000000000000e+01,6.900000000000000000e+01,2.772400000000000091e+02
6.800000000000000000e+01,5.600000000000000000e+01,2.784611110999999894e+01
