x1,y1,x2,y2,distance,capacity
5.0,22.920884923086106,5.0,22.920884923086106,0.0,21372.488055789996
5.0,22.920884923086106,13.532383804505928,14.06476760901186,12.29765779602119,21372.488055789996
13.532383804505928,14.06476760901186,19.437546890448623,25.000000000000004,12.427801837674133,21372.488055789996
19.437546890448623,25.000000000000004,27.6839531744731,20.001509690900413,9.643034894231219,21372.488055789996
27.6839531744731,20.001509690900413,27.207917381531995,6.792082618468047,13.218001878425884,21372.488055789996
27.207917381531995,6.792082618468047,40.91891406523813,10.783791664483829,14.280237083768768,21372.488055789996
40.91891406523813,10.783791664483829,42.843467399829954,24.999999999999996,14.345887388951855,21372.488055789996
42.843467399829954,24.999999999999996,34.10642663575749,31.893573364242513,11.129116543610184,21372.488055789996
34.10642663575749,31.893573364242513,35.02950795008441,51.41770477005064,19.54594040367776,21372.488055789996
35.02950795008441,51.41770477005064,21.337484442717944,43.802075451071104,15.667460472277458,21372.488055789996
21.337484442717944,43.802075451071104,9.28098756231295,36.00052447115667,14.360477524073465,21372.488055789996
9.28098756231295,36.00052447115667,5.0,22.920884923086106,13.762406229149386,21372.488055789996
54.72746927055137,21.36182512675158,54.72746927055137,21.36182512675158,0.0,9443.5997223
54.72746927055137,21.36182512675158,70.41921353288465,25.227078204037934,16.160786470526155,9443.5997223
70.41921353288465,25.227078204037934,83.20197225053968,41.97907742022921,21.07198135375643,9443.5997223
83.20197225053968,41.97907742022921,71.7405259637025,42.57779025478179,11.47707314798995,9443.5997223
71.7405259637025,42.57779025478179,63.06535389454042,46.400145081122865,9.47992652123542,9443.5997223
63.06535389454042,46.400145081122865,63.66854497406133,58.33145502593804,11.946547471033591,9443.5997223
63.66854497406133,58.33145502593804,49.67734338918489,61.999295615584444,14.463982037451048,9443.5997223
49.67734338918489,61.999295615584444,54.00482151390767,45.7037566708276,16.86035754128723,9443.5997223
54.00482151390767,45.7037566708276,54.72746927055137,21.36182512675158,24.35265593475721,9443.5997223
42.84346739982147,25.00000000000669,54.609962026200904,25.31998215639043,11.770844675426657,21372.488055789996
