x1,y1,x2,y2,distance,capacity
57.0,60.0,57.0,60.0,0.0,9.258233669341113
57.0,60.0,53.0,59.0,4.123105625617661,9.258233669341113
53.0,59.0,48.0,63.0,6.4031242374328485,9.258233669341113
48.0,63.0,52.0,62.0,4.123105625617661,9.258233669341113
52.0,62.0,54.0,63.0,2.23606797749979,9.258233669341113
54.0,63.0,57.0,60.0,4.242640687119285,9.258233669341113
47.0,55.0,47.0,55.0,0.0,8.163052576050688
47.0,55.0,45.0,58.0,3.6055512754639887,8.163052576050688
45.0,58.0,48.0,61.0,4.242640687119285,8.163052576050688
48.0,61.0,48.0,59.0,2.0,8.163052576050688
48.0,59.0,47.0,55.0,4.123105625617661,8.163052576050688
48.97578583060165,62.21937133551869,48.518564077513616,61.6480132749621,0.7808688175819952,9.258233669341113
48.518564077513616,61.6480132749621,48.0,60.99999999999999,0.7808688175819952,9.258233669341113
18.0,19.0,18.0,19.0,0.0,107.1860938894628
18.0,19.0,17.0,18.0,1.4142135623730951,107.1860938894628
17.0,18.0,15.0,18.0,2.0,107.1860938894628
15.0,18.0,12.0,17.0,3.1622776601683795,107.1860938894628
12.0,17.0,10.0,12.0,5.385164807134505,107.1860938894628
10.0,12.0,13.0,13.0,3.1622776601683795,107.1860938894628
13.0,13.0,13.0,13.0,0.0,107.1860938894628
13.0,13.0,14.0,15.0,2.23606797749979,107.1860938894628
14.0,15.0,17.0,15.0,3.0,107.1860938894628
17.0,15.0,18.0,14.0,1.4142135623730951,107.1860938894628
18.0,14.0,20.0,12.0,2.8284271247461903,107.1860938894628
20.0,12.0,19.0,17.0,5.0990195135927845,107.1860938894628
19.0,17.0,18.0,19.0,2.23606797749979,107.1860938894628
12.0,7.0,12.0,7.0,0.0,37.49012855681819
12.0,7.0,12.0,9.0,2.0,37.49012855681819
12.0,9.0,13.0,8.0,1.4142135623730951,37.49012855681819
13.0,8.0,14.0,9.0,1.4142135623730951,37.49012855681819
14.0,9.0,14.0,11.0,2.0,37.49012855681819
14.0,11.0,19.0,11.0,5.0,37.49012855681819
19.0,11.0,17.0,7.0,4.47213595499958,37.49012855681819
17.0,7.0,16.0,6.0,1.4142135623730951,37.49012855681819
16.0,6.0,13.0,6.0,3.0,37.49012855681819
13.0,6.0,12.0,7.0,1.4142135623730951,37.49012855681819
20.00000000000001,11.999999999999938,19.74086876251738,11.740868762517323,0.7071067811865079,107.1860938894628
19.74086876251738,11.740868762517323,19.000000000000018,11.000000000000043,0.7071067811865079,107.1860938894628
43.0,55.0,43.0,55.0,0.0,8.691015252664375
43.0,55.0,43.0,56.0,1.0,8.691015252664375
43.0,56.0,41.0,56.0,2.0,8.691015252664375
41.0,56.0,37.0,53.0,5.0,8.691015252664375
37.0,53.0,39.0,54.0,2.23606797749979,8.691015252664375
39.0,54.0,43.0,55.0,4.123105625617661,8.691015252664375
31.0,50.0,31.0,50.0,0.0,8.178232520885079
31.0,50.0,33.0,49.0,2.23606797749979,8.178232520885079
33.0,49.0,35.0,48.0,2.23606797749979,8.178232520885079
35.0,48.0,36.0,52.0,4.123105625617661,8.178232520885079
36.0,52.0,32.0,53.0,4.123105625617661,8.178232520885079
32.0,53.0,31.0,50.0,3.1622776601683795,8.178232520885079
36.999999999999794,52.99999999999985,36.51519874325936,52.515198743259326,0.7071067811863994,8.691015252664375
36.51519874325936,52.515198743259326,36.00000000000009,51.99999999999998,0.7071067811863994,8.691015252664375
26.0,32.0,26.0,32.0,0.0,35.34055146717228
26.0,32.0,28.0,29.0,3.6055512754639887,35.34055146717228
28.0,29.0,31.0,28.0,3.1622776601683795,35.34055146717228
31.0,28.0,32.0,32.0,4.123105625617661,35.34055146717228
32.0,32.0,33.0,33.0,1.4142135623730951,35.34055146717228
33.0,33.0,34.0,34.0,1.4142135623730951,35.34055146717228
34.0,34.0,29.0,35.0,5.0990195135927845,35.34055146717228
29.0,35.0,26.0,32.0,4.242640687119285,35.34055146717228
42.0,31.0,42.0,31.0,0.0,16.969206703859037
42.0,31.0,41.0,32.0,1.4142135623730951,16.969206703859037
41.0,32.0,38.0,30.0,3.6055512754639887,16.969206703859037
38.0,30.0,36.0,30.0,2.0,16.969206703859037
36.0,30.0,36.0,27.0,3.0,16.969206703859037
36.0,27.0,42.0,29.0,6.324555320336759,16.969206703859037
42.0,29.0,43.0,29.0,1.0,16.969206703859037
43.0,29.0,42.0,31.0,2.23606797749979,16.969206703859037
33.0,33.0,33.97319547808136,32.02680452191864,2.121320343559641,35.34055146717228
33.97319547808136,32.02680452191864,36.0,30.000000000000004,2.121320343559641,35.34055146717228
2.0,28.0,2.0,28.0,0.0,10.75337076774001
2.0,28.0,1.0,27.0,1.4142135623730951,10.75337076774001
1.0,27.0,3.0,26.0,2.23606797749979,10.75337076774001
3.0,26.0,5.0,22.0,4.47213595499958,10.75337076774001
5.0,22.0,5.0,26.0,4.0,10.75337076774001
5.0,26.0,2.0,28.0,3.6055512754639887,10.75337076774001
9.0,18.0,9.0,18.0,0.0,20.827809250447224
9.0,18.0,9.0,21.0,3.0,20.827809250447224
9.0,21.0,11.0,22.0,2.23606797749979,20.827809250447224
11.0,22.0,8.0,23.0,3.1622776601683795,20.827809250447224
8.0,23.0,7.0,22.0,1.4142135623730951,20.827809250447224
7.0,22.0,6.0,21.0,1.4142135623730951,20.827809250447224
6.0,21.0,9.0,18.0,4.242640687119285,20.827809250447224
5.0,21.999999999999986,5.659500665853912,21.340499334146084,0.7071067811865265,20.827809250447224
5.659500665853912,21.340499334146084,5.999999999999976,21.000000000000018,0.7071067811865265,20.827809250447224
71.0,34.0,71.0,34.0,0.0,7.532361389944115
71.0,34.0,70.0,29.0,5.0990195135927845,7.532361389944115
70.0,29.0,64.0,29.0,6.0,7.532361389944115
64.0,29.0,71.0,34.0,8.602325267042627,7.532361389944115
67.0,19.0,67.0,19.0,0.0,5.9499893145947995
67.0,19.0,64.0,17.0,3.6055512754639887,5.9499893145947995
64.0,17.0,73.0,19.0,9.219544457292887,5.9499893145947995
73.0,19.0,71.0,20.0,2.23606797749979,5.9499893145947995
71.0,20.0,67.0,19.0,4.123105625617661,5.9499893145947995
70.00000000000001,29.0,70.44131690719125,25.028147835278805,4.527692569068708,7.532361389944115
70.44131690719125,25.028147835278805,71.0,20.0,4.527692569068708,7.532361389944115
59.0,26.0,59.0,26.0,0.0,36.100025249090905
59.0,26.0,55.0,23.0,5.0,36.100025249090905
55.0,23.0,52.0,21.0,3.6055512754639887,36.100025249090905
52.0,21.0,53.0,19.0,2.23606797749979,36.100025249090905
53.0,19.0,58.0,16.0,5.830951894845301,36.100025249090905
58.0,16.0,58.0,20.0,4.0,36.100025249090905
58.0,20.0,59.0,26.0,6.0827625302982185,36.100025249090905
49.0,16.0,49.0,16.0,0.0,36.30099747681818
49.0,16.0,50.0,17.0,1.4142135623730951,36.30099747681818
50.0,17.0,52.0,17.0,2.0,36.30099747681818
52.0,17.0,55.0,15.0,3.6055512754639887,36.30099747681818
55.0,15.0,56.0,14.0,1.4142135623730951,36.30099747681818
56.0,14.0,54.0,14.0,2.0,36.30099747681818
54.0,14.0,51.0,13.0,3.1622776601683795,36.30099747681818
51.0,13.0,49.0,16.0,3.6055512754639887,36.30099747681818
53.14697040702449,18.911817755785304,52.57189331164968,17.95325544663628,1.114740804618488,36.30099747681818
52.57189331164968,17.95325544663628,51.99999999999999,17.0,1.114740804618488,36.30099747681818
15.0,36.0,15.0,36.0,0.0,17.962399675371827
15.0,36.0,13.0,35.0,2.23606797749979,17.962399675371827
13.0,35.0,12.0,31.0,4.123105625617661,17.962399675371827
12.0,31.0,11.0,33.0,2.23606797749979,17.962399675371827
11.0,33.0,8.0,36.0,4.242640687119285,17.962399675371827
8.0,36.0,6.0,38.0,2.8284271247461903,17.962399675371827
6.0,38.0,7.0,39.0,1.4142135623730951,17.962399675371827
7.0,39.0,11.0,38.0,4.123105625617661,17.962399675371827
11.0,38.0,15.0,36.0,4.47213595499958,17.962399675371827
4.0,36.0,4.0,36.0,0.0,19.601952591304304
4.0,36.0,3.0,34.0,2.23606797749979,19.601952591304304
3.0,34.0,5.0,30.0,4.47213595499958,19.601952591304304
5.0,30.0,8.0,29.0,3.1622776601683795,19.601952591304304
8.0,29.0,9.0,32.0,3.1622776601683795,19.601952591304304
9.0,32.0,4.0,36.0,6.4031242374328485,19.601952591304304
10.505777792853968,33.49422220714603,9.7200279228969,32.71450231054253,1.060668040173322,19.601952591304304
9.7200279228969,32.71450231054253,9.000000000000005,32.00000000000001,1.060668040173322,19.601952591304304
78.0,46.0,78.0,46.0,0.0,13.897789166263196
78.0,46.0,76.0,44.0,2.8284271247461903,13.897789166263196
76.0,44.0,75.0,43.0,1.4142135623730951,13.897789166263196
75.0,43.0,75.0,43.0,0.0,13.897789166263196
75.0,43.0,73.0,43.0,2.0,13.897789166263196
73.0,43.0,70.0,44.0,3.1622776601683795,13.897789166263196
70.0,44.0,78.0,46.0,8.246211251235321,13.897789166263196
76.0,36.0,76.0,36.0,0.0,12.346462398076065
76.0,36.0,74.0,37.0,2.23606797749979,12.346462398076065
74.0,37.0,73.0,37.0,1.0,12.346462398076065
73.0,37.0,72.0,38.0,1.4142135623730951,12.346462398076065
72.0,38.0,69.0,41.0,4.242640687119285,12.346462398076065
69.0,41.0,71.0,41.0,2.0,12.346462398076065
71.0,41.0,72.0,40.0,1.4142135623730951,12.346462398076065
72.0,40.0,76.0,36.0,5.656854249492381,12.346462398076065
71.80532024578342,43.398226584738865,71.42646180859009,42.2699942067663,1.2649141719912171,13.897789166263196
71.42646180859009,42.2699942067663,71.0,41.0,1.2649141719912171,13.897789166263196
62.0,65.0,62.0,65.0,0.0,27.653223072986584
62.0,65.0,67.0,65.0,5.0,27.653223072986584
67.0,65.0,68.0,56.0,9.055385138137416,27.653223072986584
68.0,56.0,66.0,55.0,2.23606797749979,27.653223072986584
66.0,55.0,65.0,57.0,2.23606797749979,27.653223072986584
65.0,57.0,62.0,60.0,4.242640687119285,27.653223072986584
62.0,60.0,57.0,69.0,10.295630140987,27.653223072986584
57.0,69.0,62.0,65.0,6.4031242374328485,27.653223072986584
74.0,58.0,74.0,58.0,0.0,30.209464719757772
74.0,58.0,71.0,57.0,3.1622776601683795,30.209464719757772
71.0,57.0,69.0,56.0,2.23606797749979,30.209464719757772
69.0,56.0,80.0,56.0,11.0,30.209464719757772
80.0,56.0,74.0,58.0,6.324555320336759,30.209464719757772
68.0,56.0,68.52208886023344,56.0,0.4999999999999929,30.209464719757772
68.52208886023344,56.0,68.99999999999999,56.0,0.4999999999999929,30.209464719757772
39.0,19.0,39.0,19.0,0.0,57.28224434609494
39.0,19.0,40.0,20.0,1.4142135623730951,57.28224434609494
40.0,20.0,40.0,22.0,2.0,57.28224434609494
40.0,22.0,42.0,25.0,3.6055512754639887,57.28224434609494
42.0,25.0,42.0,22.0,3.0,57.28224434609494
42.0,22.0,40.0,18.0,4.47213595499958,57.28224434609494
40.0,18.0,39.0,19.0,1.4142135623730951,57.28224434609494
47.0,27.0,47.0,27.0,0.0,27.09885996248086
47.0,27.0,47.0,26.0,1.0,27.09885996248086
47.0,26.0,49.0,20.0,6.324555320336759,27.09885996248086
49.0,20.0,47.0,21.0,2.23606797749979,27.09885996248086
47.0,21.0,47.0,22.0,1.0,27.09885996248086
47.0,22.0,45.0,25.0,3.6055512754639887,27.09885996248086
45.0,25.0,47.0,27.0,2.8284271247461903,27.09885996248086
42.000000000000014,25.00000000000001,42.96344531816208,25.00000000000001,1.4999999999999931,57.28224434609494
42.96344531816208,25.00000000000001,45.0,25.0,1.4999999999999931,57.28224434609494
19.0,8.0,19.0,8.0,0.0,50.831683175467965
19.0,8.0,21.0,6.0,2.8284271247461903,50.831683175467965
21.0,6.0,21.0,6.0,0.0,50.831683175467965
21.0,6.0,26.0,8.0,5.385164807134505,50.831683175467965
26.0,8.0,30.0,11.0,5.0,50.831683175467965
30.0,11.0,26.0,10.0,4.123105625617661,50.831683175467965
26.0,10.0,24.0,10.0,2.0,50.831683175467965
24.0,10.0,22.0,9.0,2.23606797749979,50.831683175467965
22.0,9.0,19.0,8.0,3.1622776601683795,50.831683175467965
34.0,9.0,34.0,9.0,0.0,66.4115941842278
34.0,9.0,35.0,7.0,2.23606797749979,66.4115941842278
35.0,7.0,33.0,6.0,2.23606797749979,66.4115941842278
33.0,6.0,32.0,6.0,1.0,66.4115941842278
32.0,6.0,30.0,6.0,2.0,66.4115941842278
30.0,6.0,30.0,5.0,1.0,66.4115941842278
30.0,5.0,29.0,4.0,1.4142135623730951,66.4115941842278
29.0,4.0,31.0,1.0,3.6055512754639887,66.4115941842278
31.0,1.0,26.0,2.0,5.0990195135927845,66.4115941842278
26.0,2.0,28.0,5.0,3.6055512754639887,66.4115941842278
28.0,5.0,28.0,6.0,1.0,66.4115941842278
28.0,6.0,30.0,9.0,3.6055512754639887,66.4115941842278
30.0,9.0,34.0,9.0,4.0,66.4115941842278
29.03771152569539,10.278283644271543,29.582792771143804,9.554209253419682,0.8000012785914186,66.4115941842278
29.582792771143804,9.554209253419682,29.999999999999996,9.0,0.8000012785914186,66.4115941842278
50.0,10.0,50.0,10.0,0.0,47.95391551416122
50.0,10.0,50.0,9.0,1.0,47.95391551416122
50.0,9.0,48.0,9.0,2.0,47.95391551416122
48.0,9.0,44.0,11.0,4.47213595499958,47.95391551416122
44.0,11.0,42.0,11.0,2.0,47.95391551416122
42.0,11.0,44.0,13.0,2.8284271247461903,47.95391551416122
44.0,13.0,45.0,15.0,2.23606797749979,47.95391551416122
45.0,15.0,46.0,14.0,1.4142135623730951,47.95391551416122
46.0,14.0,47.0,11.0,3.1622776601683795,47.95391551416122
47.0,11.0,50.0,10.0,3.1622776601683795,47.95391551416122
36.0,12.0,36.0,12.0,0.0,109.25403958115469
36.0,12.0,37.0,12.0,1.0,109.25403958115469
37.0,12.0,38.0,8.0,4.123105625617661,109.25403958115469
38.0,8.0,40.0,3.0,5.385164807134505,109.25403958115469
40.0,3.0,42.0,5.0,2.8284271247461903,109.25403958115469
42.0,5.0,42.0,7.0,2.0,109.25403958115469
42.0,7.0,41.0,8.0,1.4142135623730951,109.25403958115469
41.0,8.0,40.0,13.0,5.0990195135927845,109.25403958115469
40.0,13.0,40.0,13.0,0.0,109.25403958115469
40.0,13.0,39.0,14.0,1.4142135623730951,109.25403958115469
39.0,14.0,35.0,13.0,4.123105625617661,109.25403958115469
35.0,13.0,36.0,12.0,1.4142135623730951,109.25403958115469
42.000000000003254,11.0,40.930821265592435,10.786173007021002,0.7844645405786447,109.25403958115469
40.930821265592435,10.786173007021002,40.461536039196865,10.692319804015677,0.7844645405786447,109.25403958115469
62.0,53.0,62.0,53.0,0.0,8.321111330817814
62.0,53.0,62.0,50.0,3.0,8.321111330817814
62.0,50.0,65.0,45.0,5.830951894845301,8.321111330817814
65.0,45.0,62.0,48.0,4.242640687119285,8.321111330817814
62.0,48.0,61.0,49.0,1.4142135623730951,8.321111330817814
61.0,49.0,62.0,53.0,4.123105625617661,8.321111330817814
63.0,44.0,63.0,44.0,0.0,6.323982597845743
63.0,44.0,63.0,44.0,0.0,6.323982597845743
63.0,44.0,66.0,46.0,3.6055512754639887,6.323982597845743
66.0,46.0,63.0,44.0,3.6055512754639887,6.323982597845743
64.79997466588836,45.20002533411164,64.80039964446509,45.200290420381,0.0005799657864935568,8.321111330817814
64.80039964446509,45.200290420381,64.80095883228626,45.20063922152417,0.0005799657864935568,8.321111330817814
35.0,23.0,35.0,23.0,0.0,18.650620344486825
35.0,23.0,31.0,24.0,4.123105625617661,18.650620344486825
31.0,24.0,30.0,21.0,3.1622776601683795,18.650620344486825
30.0,21.0,26.0,20.0,4.123105625617661,18.650620344486825
26.0,20.0,30.0,17.0,5.0,18.650620344486825
30.0,17.0,32.0,18.0,2.23606797749979,18.650620344486825
32.0,18.0,35.0,23.0,5.830951894845301,18.650620344486825
26.0,13.0,26.0,13.0,0.0,11.939924941399207
26.0,13.0,25.0,15.0,2.23606797749979,11.939924941399207
25.0,15.0,25.0,17.0,2.0,11.939924941399207
25.0,17.0,23.0,19.0,2.8284271247461903,11.939924941399207
23.0,19.0,23.0,14.0,5.0,11.939924941399207
23.0,14.0,26.0,13.0,3.1622776601683795,11.939924941399207
26.0,20.0,25.216642680699028,19.222100423771483,1.4142222033155,18.650620344486825
25.216642680699028,19.222100423771483,23.99300852654284,18.006991473457166,1.4142222033155,18.650620344486825
87.0,49.0,87.0,49.0,0.0,21.098578377104374
87.0,49.0,89.0,49.0,2.0,21.098578377104374
89.0,49.0,82.0,41.0,10.63014581273465,21.098578377104374
82.0,41.0,82.0,40.0,1.0,21.098578377104374
82.0,40.0,82.0,39.0,1.0,21.098578377104374
82.0,39.0,79.0,40.0,3.1622776601683795,21.098578377104374
79.0,40.0,78.0,42.0,2.23606797749979,21.098578377104374
78.0,42.0,79.0,42.0,1.0,21.098578377104374
79.0,42.0,79.0,43.0,1.0,21.098578377104374
79.0,43.0,85.0,48.0,7.810249675906653,21.098578377104374
85.0,48.0,87.0,49.0,2.23606797749979,21.098578377104374
79.0,34.0,79.0,34.0,0.0,26.069091588613404
79.0,34.0,80.0,35.0,1.4142135623730951,26.069091588613404
80.0,35.0,78.0,39.0,4.47213595499958,26.069091588613404
78.0,39.0,82.0,38.0,4.123105625617661,26.069091588613404
82.0,38.0,82.0,36.0,2.0,26.069091588613404
82.0,36.0,83.0,37.0,1.4142135623730951,26.069091588613404
83.0,37.0,94.0,37.0,11.0,26.069091588613404
94.0,37.0,83.0,34.0,11.401754250991381,26.069091588613404
83.0,34.0,82.0,33.0,1.4142135623730951,26.069091588613404
82.0,33.0,80.0,30.0,3.6055512754639887,26.069091588613404
80.0,30.0,79.0,34.0,4.123105625617661,26.069091588613404
82.0,39.00000000000001,81.87241325175056,38.479206855074466,0.4850766651275031,26.069091588613404
81.87241325175056,38.479206855074466,81.76915307489818,38.057711731275454,0.4850766651275031,26.069091588613404
12.0,24.0,12.0,24.0,0.0,30.469994183357553
12.0,24.0,15.0,22.0,3.6055512754639887,30.469994183357553
15.0,22.0,17.0,25.0,3.6055512754639887,30.469994183357553
17.0,25.0,16.0,26.0,1.4142135623730951,30.469994183357553
16.0,26.0,16.0,26.0,0.0,30.469994183357553
16.0,26.0,15.0,27.0,1.4142135623730951,30.469994183357553
15.0,27.0,13.0,28.0,2.23606797749979,30.469994183357553
13.0,28.0,14.0,25.0,3.1622776601683795,30.469994183357553
14.0,25.0,12.0,24.0,2.23606797749979,30.469994183357553
24.0,29.0,24.0,29.0,0.0,34.8569548329335
24.0,29.0,23.0,28.0,1.4142135623730951,34.8569548329335
23.0,28.0,21.0,28.0,2.0,34.8569548329335
21.0,28.0,21.0,27.0,1.0,34.8569548329335
21.0,27.0,21.0,25.0,2.0,34.8569548329335
21.0,25.0,24.0,25.0,3.0,34.8569548329335
24.0,25.0,26.0,24.0,2.23606797749979,34.8569548329335
26.0,24.0,26.0,26.0,2.0,34.8569548329335
26.0,26.0,24.0,26.0,2.0,34.8569548329335
24.0,26.0,24.0,27.0,1.0,34.8569548329335
24.0,27.0,24.0,29.0,2.0,34.8569548329335
17.000000000000007,25.00000000000001,19.134307838208763,25.000000000000004,1.9999999999999911,34.8569548329335
19.134307838208763,25.000000000000004,20.99999999999999,25.0,1.9999999999999911,34.8569548329335
59.0,35.0,59.0,35.0,0.0,17.336753370805024
59.0,35.0,59.0,36.0,1.0,17.336753370805024
59.0,36.0,54.0,43.0,8.602325267042627,17.336753370805024
54.0,43.0,47.0,43.0,7.0,17.336753370805024
47.0,43.0,51.0,40.0,5.0,17.336753370805024
51.0,40.0,55.0,37.0,5.0,17.336753370805024
55.0,37.0,59.0,35.0,4.47213595499958,17.336753370805024
45.0,47.0,45.0,47.0,0.0,26.14581474613959
45.0,47.0,47.0,48.0,2.23606797749979,26.14581474613959
47.0,48.0,50.0,47.0,3.1622776601683795,26.14581474613959
50.0,47.0,55.0,47.0,5.0,26.14581474613959
55.0,47.0,56.0,49.0,2.23606797749979,26.14581474613959
56.0,49.0,53.0,49.0,3.0,26.14581474613959
53.0,49.0,51.0,51.0,2.8284271247461903,26.14581474613959
51.0,51.0,47.0,49.0,4.47213595499958,26.14581474613959
47.0,49.0,45.0,47.0,2.8284271247461903,26.14581474613959
54.00000000000014,42.9999999999998,54.004289071588154,45.4051766837525,2.0000031800378437,26.14581474613959
54.004289071588154,45.4051766837525,54.007133066966894,47.0,2.0000031800378437,26.14581474613959
25.0,49.0,25.0,49.0,0.0,28.45708049031544
25.0,49.0,29.0,45.0,5.656854249492381,28.45708049031544
29.0,45.0,27.0,44.0,2.23606797749979,28.45708049031544
27.0,44.0,25.0,45.0,2.23606797749979,28.45708049031544
25.0,45.0,24.0,44.0,1.4142135623730951,28.45708049031544
24.0,44.0,21.0,43.0,3.1622776601683795,28.45708049031544
21.0,43.0,17.0,46.0,5.0,28.45708049031544
17.0,46.0,19.0,46.0,2.0,28.45708049031544
19.0,46.0,25.0,49.0,6.708203932499369,28.45708049031544
22.0,35.0,22.0,35.0,0.0,32.618274610957386
22.0,35.0,20.0,34.0,2.23606797749979,32.618274610957386
20.0,34.0,21.0,37.0,3.1622776601683795,32.618274610957386
21.0,37.0,20.0,38.0,1.4142135623730951,32.618274610957386
20.0,38.0,17.0,38.0,3.0,32.618274610957386
17.0,38.0,20.0,41.0,4.242640687119285,32.618274610957386
20.0,41.0,23.0,40.0,3.1622776601683795,32.618274610957386
23.0,40.0,23.0,39.0,1.0,32.618274610957386
23.0,39.0,22.0,35.0,4.123105625617661,32.618274610957386
21.000000000000004,43.0,20.625749779017,41.87859592033082,1.1067972528579355,32.618274610957386
20.625749779017,41.87859592033082,20.29924358612186,40.90025213795938,1.1067972528579355,32.618274610957386
71.42646180859009,42.2699942067663,71.42646180859009,42.2699942067663,0.0,28.62677225907441
71.42646180859009,42.2699942067663,68.52208886023345,56.0,14.033832024980805,28.62677225907441
68.52208886023345,56.0,64.80039964446509,45.200290420380995,11.422989872309309,28.62677225907441
64.80039964446509,45.200290420380995,54.00428907158816,45.40517668375249,10.798054541569204,28.62677225907441
54.00428907158816,45.40517668375249,42.96344531816208,25.000000000000007,23.20067814273375,28.62677225907441
42.96344531816208,25.000000000000007,52.57189331164969,17.95325544663628,11.915489148327794,28.62677225907441
52.57189331164969,17.95325544663628,70.44131690719125,25.028147835278805,19.21901147165924,28.62677225907441
70.44131690719125,25.028147835278805,81.87253535183086,38.479705251463926,17.652681157546404,28.62677225907441
81.87253535183086,38.479705251463926,71.42646180859009,42.2699942067663,11.112458901408003,28.62677225907441
48.51856407751361,61.648013274962096,48.51856407751361,61.648013274962096,0.0,55.57542830959872
48.51856407751361,61.648013274962096,36.51519874325936,52.515198743259326,15.082741150668133,55.57542830959872
36.51519874325936,52.515198743259326,20.625749779016996,41.87859592033082,19.120980832582664,55.57542830959872
20.625749779016996,41.87859592033082,9.720027922896898,32.71450231054253,14.244836990714148,55.57542830959872
9.720027922896898,32.71450231054253,5.659500665853911,21.340499334146084,12.077078508988182,55.57542830959872
5.659500665853911,21.340499334146084,19.134307838208763,25.000000000000007,13.96289273236499,55.57542830959872
19.134307838208763,25.000000000000007,25.216642680699028,19.222100423771483,8.389214543039941,55.57542830959872
25.216642680699028,19.222100423771483,19.740868762517376,11.740868762517328,9.271080151330267,55.57542830959872
19.740868762517376,11.740868762517328,29.5827927711438,9.55420925341968,10.081911921868015,55.57542830959872
29.5827927711438,9.55420925341968,40.93082126559244,10.786173007021002,11.414704788167137,55.57542830959872
40.93082126559244,10.786173007021002,33.97319547808136,32.02680452191864,22.351129361862277,55.57542830959872
33.97319547808136,32.02680452191864,48.51856407751361,61.648013274962096,32.99975387309317,55.57542830959872
42.96344531816191,25.000000000000128,36.929263861706715,23.002352620218083,6.356252111376467,55.57542830959872
