6.200000000000000000e+01,4.800000000000000000e+01,1.579199999999999875e+02,0.000000000000000000e+00
6.100000000000000000e+01,4.900000000000000000e+01,7.023611110999999596e+01,0.000000000000000000e+00
6.200000000000000000e+01,5.300000000000000000e+01,7.799611111000000108e+01,0.000000000000000000e+00
6.200000000000000000e+01,5.000000000000000000e+01,9.571805555999999626e+01,0.000000000000000000e+00
6.200000000000000000e+01,4.800000000000000000e+01,1.579199999999999875e+02,0.000000000000000000e+00
6.300000000000000000e+01,4.400000000000000000e+01,1.080000000000000000e+02,1.000000000000000000e+00
6.300000000000000000e+01,4.400000000000000000e+01,1.080000000000000000e+02,1.000000000000000000e+00
6.500000000000000000e+01,4.500000000000000000e+01,1.045761110999999914e+02,1.000000000000000000e+00
6.600000000000000000e+01,4.600000000000000000e+01,1.201719444000000152e+02,1.000000000000000000e+00
6.300000000000000000e+01,4.400000000000000000e+01,1.080000000000000000e+02,1.000000000000000000e+00
