7.100000000000000000e+01,3.400000000000000000e+01,6.143194444000000232e+01,0.000000000000000000e+00
7.000000000000000000e+01,2.900000000000000000e+01,1.584799999999999898e+02,0.000000000000000000e+00
6.400000000000000000e+01,2.900000000000000000e+01,1.592469444000000180e+02,0.000000000000000000e+00
7.100000000000000000e+01,3.400000000000000000e+01,6.143194444000000232e+01,0.000000000000000000e+00
7.300000000000000000e+01,1.900000000000000000e+01,5.849305556000000195e+01,1.000000000000000000e+00
7.100000000000000000e+01,2.000000000000000000e+01,6.328000000000000114e+01,1.000000000000000000e+00
6.700000000000000000e+01,1.900000000000000000e+01,6.189000000000000057e+01,1.000000000000000000e+00
6.400000000000000000e+01,1.700000000000000000e+01,1.024800000000000040e+02,1.000000000000000000e+00
7.300000000000000000e+01,1.900000000000000000e+01,5.849305556000000195e+01,1.000000000000000000e+00
