<?xml version="1.0" encoding="UTF-8"?>
<kml xmlns="http://www.opengis.net/kml/2.2" xmlns:gx="http://www.google.com/kml/ext/2.2" xmlns:kml="http://www.opengis.net/kml/2.2" xmlns:atom="http://www.w3.org/2005/Atom"><Document>
<Placemark>
<Style><LineStyle><width>1</width></LineStyle></Style>
<LineString><tessellate>1</tessellate><coordinates>
6.577385781,53.23165082,0
6.577385781,53.23165082,0
</coordinates></LineString></Placemark>
<Placemark>
<Style><LineStyle><width>1</width></LineStyle></Style>
<LineString><tessellate>1</tessellate><coordinates>
6.577385781,53.23165082,0
6.576069199999999,53.23102793,0
</coordinates></LineString></Placemark>
<Placemark>
<Style><LineStyle><width>1</width></LineStyle></Style>
<LineString><tessellate>1</tessellate><coordinates>
6.576069199999999,53.23102793,0
6.573917183,53.23247148,0
</coordinates></LineString></Placemark>
<Placemark>
<Style><LineStyle><width>1</width></LineStyle></Style>
<LineString><tessellate>1</tessellate><coordinates>
6.573917183,53.23247148,0
6.57552065,53.23199781,0
</coordinates></LineString></Placemark>
<Placemark>
<Style><LineStyle><width>1</width></LineStyle></Style>
<LineString><tessellate>1</tessellate><coordinates>
6.57552065,53.23199781,0
6.576312491,53.23253757,0
</coordinates></LineString></Placemark>
<Placemark>
<Style><LineStyle><width>1</width></LineStyle></Style>
<LineString><tessellate>1</tessellate><coordinates>
6.576312491,53.23253757,0
6.577385781,53.23165082,0
</coordinates></LineString></Placemark>
<Placemark>
<Style><LineStyle><width>1</width></LineStyle></Style>
<LineString><tessellate>1</tessellate><coordinates>
6.573585700000001,53.2299983,0
6.573585700000001,53.2299983,0
</coordinates></LineString></Placemark>
<Placemark>
<Style><LineStyle><width>1</width></LineStyle></Style>
<LineString><tessellate>1</tessellate><coordinates>
6.573585700000001,53.2299983,0
6.573029247999999,53.23099102,0
</coordinates></LineString></Placemark>
<Placemark>
<Style><LineStyle><width>1</width></LineStyle></Style>
<LineString><tessellate>1</tessellate><coordinates>
6.573029247999999,53.23099102,0
6.574171588,53.23196473,0
</coordinates></LineString></Placemark>
<Placemark>
<Style><LineStyle><width>1</width></LineStyle></Style>
<LineString><tessellate>1</tessellate><coordinates>
6.574171588,53.23196473,0
6.5741443120000005,53.23104776,0
</coordinates></LineString></Placemark>
<Placemark>
<Style><LineStyle><width>1</width></LineStyle></Style>
<LineString><tessellate>1</tessellate><coordinates>
6.5741443120000005,53.23104776,0
6.573585700000001,53.2299983,0
</coordinates></LineString></Placemark>
<Placemark>
<Style><LineStyle><width>1</width></LineStyle></Style>
<LineString><tessellate>1</tessellate><coordinates>
6.562536858,53.21849812,0
6.562536858,53.21849812,0
</coordinates></LineString></Placemark>
<Placemark>
<Style><LineStyle><width>1</width></LineStyle></Style>
<LineString><tessellate>1</tessellate><coordinates>
6.562536858,53.21849812,0
6.562393318,53.21815519,0
</coordinates></LineString></Placemark>
<Placemark>
<Style><LineStyle><width>1</width></LineStyle></Style>
<LineString><tessellate>1</tessellate><coordinates>
6.562393318,53.21815519,0
6.561488121,53.21811477,0
</coordinates></LineString></Placemark>
<Placemark>
<Style><LineStyle><width>1</width></LineStyle></Style>
<LineString><tessellate>1</tessellate><coordinates>
6.561488121,53.21811477,0
6.560498084,53.21794013,0
</coordinates></LineString></Placemark>
<Placemark>
<Style><LineStyle><width>1</width></LineStyle></Style>
<LineString><tessellate>1</tessellate><coordinates>
6.560498084,53.21794013,0
6.55967115,53.21629639,0
</coordinates></LineString></Placemark>
<Placemark>
<Style><LineStyle><width>1</width></LineStyle></Style>
<LineString><tessellate>1</tessellate><coordinates>
6.55967115,53.21629639,0
6.56079225,53.21668017,0
</coordinates></LineString></Placemark>
<Placemark>
<Style><LineStyle><width>1</width></LineStyle></Style>
<LineString><tessellate>1</tessellate><coordinates>
6.56079225,53.21668017,0
6.56079225,53.21668017,0
</coordinates></LineString></Placemark>
<Placemark>
<Style><LineStyle><width>1</width></LineStyle></Style>
<LineString><tessellate>1</tessellate><coordinates>
6.56079225,53.21668017,0
6.561129221,53.21705565,0
</coordinates></LineString></Placemark>
<Placemark>
<Style><LineStyle><width>1</width></LineStyle></Style>
<LineString><tessellate>1</tessellate><coordinates>
6.561129221,53.21705565,0
6.562093438,53.21724697,0
</coordinates></LineString></Placemark>
<Placemark>
<Style><LineStyle><width>1</width></LineStyle></Style>
<LineString><tessellate>1</tessellate><coordinates>
6.562093438,53.21724697,0
6.562741767,53.21697547,0
</coordinates></LineString></Placemark>
<Placemark>
<Style><LineStyle><width>1</width></LineStyle></Style>
<LineString><tessellate>1</tessellate><coordinates>
6.562741767,53.21697547,0
6.563243872999999,53.21638616,0
</coordinates></LineString></Placemark>
<Placemark>
<Style><LineStyle><width>1</width></LineStyle></Style>
<LineString><tessellate>1</tessellate><coordinates>
6.563243872999999,53.21638616,0
6.563123714,53.21773226,0
</coordinates></LineString></Placemark>
<Placemark>
<Style><LineStyle><width>1</width></LineStyle></Style>
<LineString><tessellate>1</tessellate><coordinates>
6.563123714,53.21773226,0
6.562536858,53.21849812,0
</coordinates></LineString></Placemark>
<Placemark>
<Style><LineStyle><width>1</width></LineStyle></Style>
<LineString><tessellate>1</tessellate><coordinates>
6.5603926470000005,53.214612,0
6.5603926470000005,53.214612,0
</coordinates></LineString></Placemark>
<Placemark>
<Style><LineStyle><width>1</width></LineStyle></Style>
<LineString><tessellate>1</tessellate><coordinates>
6.5603926470000005,53.214612,0
6.560340413,53.21513227,0
</coordinates></LineString></Placemark>
<Placemark>
<Style><LineStyle><width>1</width></LineStyle></Style>
<LineString><tessellate>1</tessellate><coordinates>
6.560340413,53.21513227,0
6.56067841,53.21488994,0
</coordinates></LineString></Placemark>
<Placemark>
<Style><LineStyle><width>1</width></LineStyle></Style>
<LineString><tessellate>1</tessellate><coordinates>
6.56067841,53.21488994,0
6.561197823,53.21528277,0
</coordinates></LineString></Placemark>
<Placemark>
<Style><LineStyle><width>1</width></LineStyle></Style>
<LineString><tessellate>1</tessellate><coordinates>
6.561197823,53.21528277,0
6.561036614,53.21583725,0
</coordinates></LineString></Placemark>
<Placemark>
<Style><LineStyle><width>1</width></LineStyle></Style>
<LineString><tessellate>1</tessellate><coordinates>
6.561036614,53.21583725,0
6.5632167070000005,53.21580185,0
</coordinates></LineString></Placemark>
<Placemark>
<Style><LineStyle><width>1</width></LineStyle></Style>
<LineString><tessellate>1</tessellate><coordinates>
6.5632167070000005,53.21580185,0
6.5622231,53.21460793,0
</coordinates></LineString></Placemark>
<Placemark>
<Style><LineStyle><width>1</width></LineStyle></Style>
<LineString><tessellate>1</tessellate><coordinates>
6.5622231,53.21460793,0
6.561854375,53.21425354,0
</coordinates></LineString></Placemark>
<Placemark>
<Style><LineStyle><width>1</width></LineStyle></Style>
<LineString><tessellate>1</tessellate><coordinates>
6.561854375,53.21425354,0
6.56089442,53.21430492,0
</coordinates></LineString></Placemark>
<Placemark>
<Style><LineStyle><width>1</width></LineStyle></Style>
<LineString><tessellate>1</tessellate><coordinates>
6.56089442,53.21430492,0
6.5603926470000005,53.214612,0
</coordinates></LineString></Placemark>
<Placemark>
<Style><LineStyle><width>1</width></LineStyle></Style>
<LineString><tessellate>1</tessellate><coordinates>
6.57217229,53.22974842,0
6.57217229,53.22974842,0
</coordinates></LineString></Placemark>
<Placemark>
<Style><LineStyle><width>1</width></LineStyle></Style>
<LineString><tessellate>1</tessellate><coordinates>
6.57217229,53.22974842,0
6.572029846,53.23024196,0
</coordinates></LineString></Placemark>
<Placemark>
<Style><LineStyle><width>1</width></LineStyle></Style>
<LineString><tessellate>1</tessellate><coordinates>
6.572029846,53.23024196,0
6.571319539,53.23026376,0
</coordinates></LineString></Placemark>
<Placemark>
<Style><LineStyle><width>1</width></LineStyle></Style>
<LineString><tessellate>1</tessellate><coordinates>
6.571319539,53.23026376,0
6.569849971,53.22927822,0
</coordinates></LineString></Placemark>
<Placemark>
<Style><LineStyle><width>1</width></LineStyle></Style>
<LineString><tessellate>1</tessellate><coordinates>
6.569849971,53.22927822,0
6.5706095,53.22957411,0
</coordinates></LineString></Placemark>
<Placemark>
<Style><LineStyle><width>1</width></LineStyle></Style>
<LineString><tessellate>1</tessellate><coordinates>
6.5706095,53.22957411,0
6.57217229,53.22974842,0
</coordinates></LineString></Placemark>
<Placemark>
<Style><LineStyle><width>1</width></LineStyle></Style>
<LineString><tessellate>1</tessellate><coordinates>
6.567559208,53.22846635,0
6.567559208,53.22846635,0
</coordinates></LineString></Placemark>
<Placemark>
<Style><LineStyle><width>1</width></LineStyle></Style>
<LineString><tessellate>1</tessellate><coordinates>
6.567559208,53.22846635,0
6.56832298,53.22805172,0
</coordinates></LineString></Placemark>
<Placemark>
<Style><LineStyle><width>1</width></LineStyle></Style>
<LineString><tessellate>1</tessellate><coordinates>
6.56832298,53.22805172,0
6.569201869,53.22766155,0
</coordinates></LineString></Placemark>
<Placemark>
<Style><LineStyle><width>1</width></LineStyle></Style>
<LineString><tessellate>1</tessellate><coordinates>
6.569201869,53.22766155,0
6.56954252,53.22889012,0
</coordinates></LineString></Placemark>
<Placemark>
<Style><LineStyle><width>1</width></LineStyle></Style>
<LineString><tessellate>1</tessellate><coordinates>
6.56954252,53.22889012,0
6.5678860210000005,53.22915873,0
</coordinates></LineString></Placemark>
<Placemark>
<Style><LineStyle><width>1</width></LineStyle></Style>
<LineString><tessellate>1</tessellate><coordinates>
6.5678860210000005,53.22915873,0
6.567559208,53.22846635,0
</coordinates></LineString></Placemark>
<Placemark>
<Style><LineStyle><width>1</width></LineStyle></Style>
<LineString><tessellate>1</tessellate><coordinates>
6.565589052999999,53.22250541,0
6.565589052999999,53.22250541,0
</coordinates></LineString></Placemark>
<Placemark>
<Style><LineStyle><width>1</width></LineStyle></Style>
<LineString><tessellate>1</tessellate><coordinates>
6.565589052999999,53.22250541,0
6.566488777000001,53.22154927,0
</coordinates></LineString></Placemark>
<Placemark>
<Style><LineStyle><width>1</width></LineStyle></Style>
<LineString><tessellate>1</tessellate><coordinates>
6.566488777000001,53.22154927,0
6.567475278,53.22140159,0
</coordinates></LineString></Placemark>
<Placemark>
<Style><LineStyle><width>1</width></LineStyle></Style>
<LineString><tessellate>1</tessellate><coordinates>
6.567475278,53.22140159,0
6.56779735,53.22264916,0
</coordinates></LineString></Placemark>
<Placemark>
<Style><LineStyle><width>1</width></LineStyle></Style>
<LineString><tessellate>1</tessellate><coordinates>
6.56779735,53.22264916,0
6.5683077910000005,53.22292232,0
</coordinates></LineString></Placemark>
<Placemark>
<Style><LineStyle><width>1</width></LineStyle></Style>
<LineString><tessellate>1</tessellate><coordinates>
6.5683077910000005,53.22292232,0
6.568760289,53.22322512,0
</coordinates></LineString></Placemark>
<Placemark>
<Style><LineStyle><width>1</width></LineStyle></Style>
<LineString><tessellate>1</tessellate><coordinates>
6.568760289,53.22322512,0
6.566815537,53.22347116,0
</coordinates></LineString></Placemark>
<Placemark>
<Style><LineStyle><width>1</width></LineStyle></Style>
<LineString><tessellate>1</tessellate><coordinates>
6.566815537,53.22347116,0
6.565589052999999,53.22250541,0
</coordinates></LineString></Placemark>
<Placemark>
<Style><LineStyle><width>1</width></LineStyle></Style>
<LineString><tessellate>1</tessellate><coordinates>
6.571874311,53.22214336,0
6.571874311,53.22214336,0
</coordinates></LineString></Placemark>
<Placemark>
<Style><LineStyle><width>1</width></LineStyle></Style>
<LineString><tessellate>1</tessellate><coordinates>
6.571874311,53.22214336,0
6.571551482,53.22257723,0
</coordinates></LineString></Placemark>
<Placemark>
<Style><LineStyle><width>1</width></LineStyle></Style>
<LineString><tessellate>1</tessellate><coordinates>
6.571551482,53.22257723,0
6.570229792999999,53.22198164,0
</coordinates></LineString></Placemark>
<Placemark>
<Style><LineStyle><width>1</width></LineStyle></Style>
<LineString><tessellate>1</tessellate><coordinates>
6.570229792999999,53.22198164,0
6.569473896,53.22194817,0
</coordinates></LineString></Placemark>
<Placemark>
<Style><LineStyle><width>1</width></LineStyle></Style>
<LineString><tessellate>1</tessellate><coordinates>
6.569473896,53.22194817,0
6.569665147,53.22109197,0
</coordinates></LineString></Placemark>
<Placemark>
<Style><LineStyle><width>1</width></LineStyle></Style>
<LineString><tessellate>1</tessellate><coordinates>
6.569665147,53.22109197,0
6.571796109,53.22172332,0
</coordinates></LineString></Placemark>
<Placemark>
<Style><LineStyle><width>1</width></LineStyle></Style>
<LineString><tessellate>1</tessellate><coordinates>
6.571796109,53.22172332,0
6.572326192999999,53.22155664,0
</coordinates></LineString></Placemark>
<Placemark>
<Style><LineStyle><width>1</width></LineStyle></Style>
<LineString><tessellate>1</tessellate><coordinates>
6.572326192999999,53.22155664,0
6.571874311,53.22214336,0
</coordinates></LineString></Placemark>
<Placemark>
<Style><LineStyle><width>1</width></LineStyle></Style>
<LineString><tessellate>1</tessellate><coordinates>
6.5683077910000005,53.22292232,0
0,0,0
</coordinates></LineString></Placemark>
<Placemark>
<Style><LineStyle><width>1</width></LineStyle></Style>
<LineString><tessellate>1</tessellate><coordinates>
6.556434405,53.22139332,0
6.556434405,53.22139332,0
</coordinates></LineString></Placemark>
<Placemark>
<Style><LineStyle><width>1</width></LineStyle></Style>
<LineString><tessellate>1</tessellate><coordinates>
6.556434405,53.22139332,0
6.556219116,53.22096788,0
</coordinates></LineString></Placemark>
<Placemark>
<Style><LineStyle><width>1</width></LineStyle></Style>
<LineString><tessellate>1</tessellate><coordinates>
6.556219116,53.22096788,0
6.556914609,53.22079078,0
</coordinates></LineString></Placemark>
<Placemark>
<Style><LineStyle><width>1</width></LineStyle></Style>
<LineString><tessellate>1</tessellate><coordinates>
6.556914609,53.22079078,0
6.557792413,53.21930325,0
</coordinates></LineString></Placemark>
<Placemark>
<Style><LineStyle><width>1</width></LineStyle></Style>
<LineString><tessellate>1</tessellate><coordinates>
6.557792413,53.21930325,0
6.557798002999999,53.22060953,0
</coordinates></LineString></Placemark>
<Placemark>
<Style><LineStyle><width>1</width></LineStyle></Style>
<LineString><tessellate>1</tessellate><coordinates>
6.557798002999999,53.22060953,0
6.556434405,53.22139332,0
</coordinates></LineString></Placemark>
<Placemark>
<Style><LineStyle><width>1</width></LineStyle></Style>
<LineString><tessellate>1</tessellate><coordinates>
6.559244633,53.21816999,0
6.559244633,53.21816999,0
</coordinates></LineString></Placemark>
<Placemark>
<Style><LineStyle><width>1</width></LineStyle></Style>
<LineString><tessellate>1</tessellate><coordinates>
6.559244633,53.21816999,0
6.559405875,53.21922956,0
</coordinates></LineString></Placemark>
<Placemark>
<Style><LineStyle><width>1</width></LineStyle></Style>
<LineString><tessellate>1</tessellate><coordinates>
6.559405875,53.21922956,0
6.56010902,53.21944797,0
</coordinates></LineString></Placemark>
<Placemark>
<Style><LineStyle><width>1</width></LineStyle></Style>
<LineString><tessellate>1</tessellate><coordinates>
6.56010902,53.21944797,0
6.55878418,53.21975972,0
</coordinates></LineString></Placemark>
<Placemark>
<Style><LineStyle><width>1</width></LineStyle></Style>
<LineString><tessellate>1</tessellate><coordinates>
6.55878418,53.21975972,0
6.55838305,53.21947545,0
</coordinates></LineString></Placemark>
<Placemark>
<Style><LineStyle><width>1</width></LineStyle></Style>
<LineString><tessellate>1</tessellate><coordinates>
6.55838305,53.21947545,0
6.558139725,53.21917223,0
</coordinates></LineString></Placemark>
<Placemark>
<Style><LineStyle><width>1</width></LineStyle></Style>
<LineString><tessellate>1</tessellate><coordinates>
6.558139725,53.21917223,0
6.559244633,53.21816999,0
</coordinates></LineString></Placemark>
<Placemark>
<Style><LineStyle><width>1</width></LineStyle></Style>
<LineString><tessellate>1</tessellate><coordinates>
6.582605778,53.22311838,0
6.582605778,53.22311838,0
</coordinates></LineString></Placemark>
<Placemark>
<Style><LineStyle><width>1</width></LineStyle></Style>
<LineString><tessellate>1</tessellate><coordinates>
6.582605778,53.22311838,0
6.582224843,53.22157825,0
</coordinates></LineString></Placemark>
<Placemark>
<Style><LineStyle><width>1</width></LineStyle></Style>
<LineString><tessellate>1</tessellate><coordinates>
6.582224843,53.22157825,0
6.5800399789999995,53.22153061,0
</coordinates></LineString></Placemark>
<Placemark>
<Style><LineStyle><width>1</width></LineStyle></Style>
<LineString><tessellate>1</tessellate><coordinates>
6.5800399789999995,53.22153061,0
6.582605778,53.22311838,0
</coordinates></LineString></Placemark>
<Placemark>
<Style><LineStyle><width>1</width></LineStyle></Style>
<LineString><tessellate>1</tessellate><coordinates>
6.581348469,53.21852015,0
6.581348469,53.21852015,0
</coordinates></LineString></Placemark>
<Placemark>
<Style><LineStyle><width>1</width></LineStyle></Style>
<LineString><tessellate>1</tessellate><coordinates>
6.581348469,53.21852015,0
6.580092836,53.21770847,0
</coordinates></LineString></Placemark>
<Placemark>
<Style><LineStyle><width>1</width></LineStyle></Style>
<LineString><tessellate>1</tessellate><coordinates>
6.580092836,53.21770847,0
6.583585879,53.21856099,0
</coordinates></LineString></Placemark>
<Placemark>
<Style><LineStyle><width>1</width></LineStyle></Style>
<LineString><tessellate>1</tessellate><coordinates>
6.583585879,53.21856099,0
6.582620241,53.21877484,0
</coordinates></LineString></Placemark>
<Placemark>
<Style><LineStyle><width>1</width></LineStyle></Style>
<LineString><tessellate>1</tessellate><coordinates>
6.582620241,53.21877484,0
6.581348469,53.21852015,0
</coordinates></LineString></Placemark>
<Placemark>
<Style><LineStyle><width>1</width></LineStyle></Style>
<LineString><tessellate>1</tessellate><coordinates>
0,0,0
6.582620241,53.21877484,0
</coordinates></LineString></Placemark>
<Placemark>
<Style><LineStyle><width>1</width></LineStyle></Style>
<LineString><tessellate>1</tessellate><coordinates>
6.578120312999999,53.22070953,0
6.578120312999999,53.22070953,0
</coordinates></LineString></Placemark>
<Placemark>
<Style><LineStyle><width>1</width></LineStyle></Style>
<LineString><tessellate>1</tessellate><coordinates>
6.578120312999999,53.22070953,0
6.576627069,53.21961657,0
</coordinates></LineString></Placemark>
<Placemark>
<Style><LineStyle><width>1</width></LineStyle></Style>
<LineString><tessellate>1</tessellate><coordinates>
6.576627069,53.21961657,0
6.575548771,53.21917661,0
</coordinates></LineString></Placemark>
<Placemark>
<Style><LineStyle><width>1</width></LineStyle></Style>
<LineString><tessellate>1</tessellate><coordinates>
6.575548771,53.21917661,0
6.575844119,53.21855997,0
</coordinates></LineString></Placemark>
<Placemark>
<Style><LineStyle><width>1</width></LineStyle></Style>
<LineString><tessellate>1</tessellate><coordinates>
6.575844119,53.21855997,0
6.577945571,53.21748756,0
</coordinates></LineString></Placemark>
<Placemark>
<Style><LineStyle><width>1</width></LineStyle></Style>
<LineString><tessellate>1</tessellate><coordinates>
6.577945571,53.21748756,0
6.577742778999999,53.21886097,0
</coordinates></LineString></Placemark>
<Placemark>
<Style><LineStyle><width>1</width></LineStyle></Style>
<LineString><tessellate>1</tessellate><coordinates>
6.577742778999999,53.21886097,0
6.578120312999999,53.22070953,0
</coordinates></LineString></Placemark>
<Placemark>
<Style><LineStyle><width>1</width></LineStyle></Style>
<LineString><tessellate>1</tessellate><coordinates>
6.574559636,53.21747808,0
6.574559636,53.21747808,0
</coordinates></LineString></Placemark>
<Placemark>
<Style><LineStyle><width>1</width></LineStyle></Style>
<LineString><tessellate>1</tessellate><coordinates>
6.574559636,53.21747808,0
6.574842962000001,53.21791838,0
</coordinates></LineString></Placemark>
<Placemark>
<Style><LineStyle><width>1</width></LineStyle></Style>
<LineString><tessellate>1</tessellate><coordinates>
6.574842962000001,53.21791838,0
6.5753998760000005,53.21771516,0
</coordinates></LineString></Placemark>
<Placemark>
<Style><LineStyle><width>1</width></LineStyle></Style>
<LineString><tessellate>1</tessellate><coordinates>
6.5753998760000005,53.21771516,0
6.576666675,53.2173039,0
</coordinates></LineString></Placemark>
<Placemark>
<Style><LineStyle><width>1</width></LineStyle></Style>
<LineString><tessellate>1</tessellate><coordinates>
6.576666675,53.2173039,0
6.5769972260000005,53.21698801,0
</coordinates></LineString></Placemark>
<Placemark>
<Style><LineStyle><width>1</width></LineStyle></Style>
<LineString><tessellate>1</tessellate><coordinates>
6.5769972260000005,53.21698801,0
6.576467636,53.21700849,0
</coordinates></LineString></Placemark>
<Placemark>
<Style><LineStyle><width>1</width></LineStyle></Style>
<LineString><tessellate>1</tessellate><coordinates>
6.576467636,53.21700849,0
6.575029794,53.21662618,0
</coordinates></LineString></Placemark>
<Placemark>
<Style><LineStyle><width>1</width></LineStyle></Style>
<LineString><tessellate>1</tessellate><coordinates>
6.575029794,53.21662618,0
6.574559636,53.21747808,0
</coordinates></LineString></Placemark>
<Placemark>
<Style><LineStyle><width>1</width></LineStyle></Style>
<LineString><tessellate>1</tessellate><coordinates>
6.561689884,53.22391697,0
6.561689884,53.22391697,0
</coordinates></LineString></Placemark>
<Placemark>
<Style><LineStyle><width>1</width></LineStyle></Style>
<LineString><tessellate>1</tessellate><coordinates>
6.561689884,53.22391697,0
6.560911813,53.22358721,0
</coordinates></LineString></Placemark>
<Placemark>
<Style><LineStyle><width>1</width></LineStyle></Style>
<LineString><tessellate>1</tessellate><coordinates>
6.560911813,53.22358721,0
6.560411900000001,53.22230089,0
</coordinates></LineString></Placemark>
<Placemark>
<Style><LineStyle><width>1</width></LineStyle></Style>
<LineString><tessellate>1</tessellate><coordinates>
6.560411900000001,53.22230089,0
6.5599177179999995,53.22289927,0
</coordinates></LineString></Placemark>
<Placemark>
<Style><LineStyle><width>1</width></LineStyle></Style>
<LineString><tessellate>1</tessellate><coordinates>
6.5599177179999995,53.22289927,0
6.55874241,53.22389832,0
</coordinates></LineString></Placemark>
<Placemark>
<Style><LineStyle><width>1</width></LineStyle></Style>
<LineString><tessellate>1</tessellate><coordinates>
6.55874241,53.22389832,0
6.558207277,53.22442925,0
</coordinates></LineString></Placemark>
<Placemark>
<Style><LineStyle><width>1</width></LineStyle></Style>
<LineString><tessellate>1</tessellate><coordinates>
6.558207277,53.22442925,0
6.558356192000001,53.2246863,0
</coordinates></LineString></Placemark>
<Placemark>
<Style><LineStyle><width>1</width></LineStyle></Style>
<LineString><tessellate>1</tessellate><coordinates>
6.558356192000001,53.2246863,0
6.560020832999999,53.224355,0
</coordinates></LineString></Placemark>
<Placemark>
<Style><LineStyle><width>1</width></LineStyle></Style>
<LineString><tessellate>1</tessellate><coordinates>
6.560020832999999,53.224355,0
6.561689884,53.22391697,0
</coordinates></LineString></Placemark>
<Placemark>
<Style><LineStyle><width>1</width></LineStyle></Style>
<LineString><tessellate>1</tessellate><coordinates>
6.5574928439999995,53.22399626,0
6.5574928439999995,53.22399626,0
</coordinates></LineString></Placemark>
<Placemark>
<Style><LineStyle><width>1</width></LineStyle></Style>
<LineString><tessellate>1</tessellate><coordinates>
6.5574928439999995,53.22399626,0
6.557006728999999,53.22333926,0
</coordinates></LineString></Placemark>
<Placemark>
<Style><LineStyle><width>1</width></LineStyle></Style>
<LineString><tessellate>1</tessellate><coordinates>
6.557006728999999,53.22333926,0
6.557560861,53.22197094,0
</coordinates></LineString></Placemark>
<Placemark>
<Style><LineStyle><width>1</width></LineStyle></Style>
<LineString><tessellate>1</tessellate><coordinates>
6.557560861,53.22197094,0
6.558854983,53.22152638,0
</coordinates></LineString></Placemark>
<Placemark>
<Style><LineStyle><width>1</width></LineStyle></Style>
<LineString><tessellate>1</tessellate><coordinates>
6.558854983,53.22152638,0
6.559280321,53.22243995,0
</coordinates></LineString></Placemark>
<Placemark>
<Style><LineStyle><width>1</width></LineStyle></Style>
<LineString><tessellate>1</tessellate><coordinates>
6.559280321,53.22243995,0
6.5574928439999995,53.22399626,0
</coordinates></LineString></Placemark>
<Placemark>
<Style><LineStyle><width>1</width></LineStyle></Style>
<LineString><tessellate>1</tessellate><coordinates>
6.585251314,53.22719458,0
6.585251314,53.22719458,0
</coordinates></LineString></Placemark>
<Placemark>
<Style><LineStyle><width>1</width></LineStyle></Style>
<LineString><tessellate>1</tessellate><coordinates>
6.585251314,53.22719458,0
6.584826822999999,53.22655415,0
</coordinates></LineString></Placemark>
<Placemark>
<Style><LineStyle><width>1</width></LineStyle></Style>
<LineString><tessellate>1</tessellate><coordinates>
6.584826822999999,53.22655415,0
6.584423095,53.22595334,0
</coordinates></LineString></Placemark>
<Placemark>
<Style><LineStyle><width>1</width></LineStyle></Style>
<LineString><tessellate>1</tessellate><coordinates>
6.584423095,53.22595334,0
6.584423095,53.22595334,0
</coordinates></LineString></Placemark>
<Placemark>
<Style><LineStyle><width>1</width></LineStyle></Style>
<LineString><tessellate>1</tessellate><coordinates>
6.584423095,53.22595334,0
6.58333591,53.22597137,0
</coordinates></LineString></Placemark>
<Placemark>
<Style><LineStyle><width>1</width></LineStyle></Style>
<LineString><tessellate>1</tessellate><coordinates>
6.58333591,53.22597137,0
6.582267868,53.22630689,0
</coordinates></LineString></Placemark>
<Placemark>
<Style><LineStyle><width>1</width></LineStyle></Style>
<LineString><tessellate>1</tessellate><coordinates>
6.582267868,53.22630689,0
6.585251314,53.22719458,0
</coordinates></LineString></Placemark>
<Placemark>
<Style><LineStyle><width>1</width></LineStyle></Style>
<LineString><tessellate>1</tessellate><coordinates>
6.584678986,53.22400417,0
6.584678986,53.22400417,0
</coordinates></LineString></Placemark>
<Placemark>
<Style><LineStyle><width>1</width></LineStyle></Style>
<LineString><tessellate>1</tessellate><coordinates>
6.584678986,53.22400417,0
6.583939708,53.22424427,0
</coordinates></LineString></Placemark>
<Placemark>
<Style><LineStyle><width>1</width></LineStyle></Style>
<LineString><tessellate>1</tessellate><coordinates>
6.583939708,53.22424427,0
6.5837015,53.22412769,0
</coordinates></LineString></Placemark>
<Placemark>
<Style><LineStyle><width>1</width></LineStyle></Style>
<LineString><tessellate>1</tessellate><coordinates>
6.5837015,53.22412769,0
6.582989073999999,53.22447102,0
</coordinates></LineString></Placemark>
<Placemark>
<Style><LineStyle><width>1</width></LineStyle></Style>
<LineString><tessellate>1</tessellate><coordinates>
6.582989073999999,53.22447102,0
6.5818663829999995,53.22532989,0
</coordinates></LineString></Placemark>
<Placemark>
<Style><LineStyle><width>1</width></LineStyle></Style>
<LineString><tessellate>1</tessellate><coordinates>
6.5818663829999995,53.22532989,0
6.5827331220000005,53.22543807,0
</coordinates></LineString></Placemark>
<Placemark>
<Style><LineStyle><width>1</width></LineStyle></Style>
<LineString><tessellate>1</tessellate><coordinates>
6.5827331220000005,53.22543807,0
6.5829668,53.22505136,0
</coordinates></LineString></Placemark>
<Placemark>
<Style><LineStyle><width>1</width></LineStyle></Style>
<LineString><tessellate>1</tessellate><coordinates>
6.5829668,53.22505136,0
6.584678986,53.22400417,0
</coordinates></LineString></Placemark>
<Placemark>
<Style><LineStyle><width>1</width></LineStyle></Style>
<LineString><tessellate>1</tessellate><coordinates>
0,0,0
6.5827331220000005,53.22543807,0
</coordinates></LineString></Placemark>
<Placemark>
<Style><LineStyle><width>1</width></LineStyle></Style>
<LineString><tessellate>1</tessellate><coordinates>
6.57930671,53.23292645,0
6.57930671,53.23292645,0
</coordinates></LineString></Placemark>
<Placemark>
<Style><LineStyle><width>1</width></LineStyle></Style>
<LineString><tessellate>1</tessellate><coordinates>
6.57930671,53.23292645,0
6.581120949,53.23300517,0
</coordinates></LineString></Placemark>
<Placemark>
<Style><LineStyle><width>1</width></LineStyle></Style>
<LineString><tessellate>1</tessellate><coordinates>
6.581120949,53.23300517,0
6.581510187999999,53.23007894,0
</coordinates></LineString></Placemark>
<Placemark>
<Style><LineStyle><width>1</width></LineStyle></Style>
<LineString><tessellate>1</tessellate><coordinates>
6.581510187999999,53.23007894,0
6.580797082999999,53.22975054,0
</coordinates></LineString></Placemark>
<Placemark>
<Style><LineStyle><width>1</width></LineStyle></Style>
<LineString><tessellate>1</tessellate><coordinates>
6.580797082999999,53.22975054,0
6.580510971,53.23054738,0
</coordinates></LineString></Placemark>
<Placemark>
<Style><LineStyle><width>1</width></LineStyle></Style>
<LineString><tessellate>1</tessellate><coordinates>
6.580510971,53.23054738,0
6.579177677000001,53.23144604,0
</coordinates></LineString></Placemark>
<Placemark>
<Style><LineStyle><width>1</width></LineStyle></Style>
<LineString><tessellate>1</tessellate><coordinates>
6.579177677000001,53.23144604,0
6.577327336000001,53.23434146,0
</coordinates></LineString></Placemark>
<Placemark>
<Style><LineStyle><width>1</width></LineStyle></Style>
<LineString><tessellate>1</tessellate><coordinates>
6.577327336000001,53.23434146,0
6.57930671,53.23292645,0
</coordinates></LineString></Placemark>
<Placemark>
<Style><LineStyle><width>1</width></LineStyle></Style>
<LineString><tessellate>1</tessellate><coordinates>
6.583966843,53.23084953,0
6.583966843,53.23084953,0
</coordinates></LineString></Placemark>
<Placemark>
<Style><LineStyle><width>1</width></LineStyle></Style>
<LineString><tessellate>1</tessellate><coordinates>
6.583966843,53.23084953,0
6.582780082999999,53.23044158,0
</coordinates></LineString></Placemark>
<Placemark>
<Style><LineStyle><width>1</width></LineStyle></Style>
<LineString><tessellate>1</tessellate><coordinates>
6.582780082999999,53.23044158,0
6.582066719,53.23031877,0
</coordinates></LineString></Placemark>
<Placemark>
<Style><LineStyle><width>1</width></LineStyle></Style>
<LineString><tessellate>1</tessellate><coordinates>
6.582066719,53.23031877,0
6.585994317000001,53.230235,0
</coordinates></LineString></Placemark>
<Placemark>
<Style><LineStyle><width>1</width></LineStyle></Style>
<LineString><tessellate>1</tessellate><coordinates>
6.585994317000001,53.230235,0
6.583966843,53.23084953,0
</coordinates></LineString></Placemark>
<Placemark>
<Style><LineStyle><width>1</width></LineStyle></Style>
<LineString><tessellate>1</tessellate><coordinates>
6.581510187999999,53.23007894,0
0,0,0
</coordinates></LineString></Placemark>
<Placemark>
<Style><LineStyle><width>1</width></LineStyle></Style>
<LineString><tessellate>1</tessellate><coordinates>
6.5706558479999995,53.21849623,0
6.5706558479999995,53.21849623,0
</coordinates></LineString></Placemark>
<Placemark>
<Style><LineStyle><width>1</width></LineStyle></Style>
<LineString><tessellate>1</tessellate><coordinates>
6.5706558479999995,53.21849623,0
6.571178995,53.21892364,0
</coordinates></LineString></Placemark>
<Placemark>
<Style><LineStyle><width>1</width></LineStyle></Style>
<LineString><tessellate>1</tessellate><coordinates>
6.571178995,53.21892364,0
6.570963879,53.21934258,0
</coordinates></LineString></Placemark>
<Placemark>
<Style><LineStyle><width>1</width></LineStyle></Style>
<LineString><tessellate>1</tessellate><coordinates>
6.570963879,53.21934258,0
6.571931092000001,53.22034648,0
</coordinates></LineString></Placemark>
<Placemark>
<Style><LineStyle><width>1</width></LineStyle></Style>
<LineString><tessellate>1</tessellate><coordinates>
6.571931092000001,53.22034648,0
6.571874263,53.21930741,0
</coordinates></LineString></Placemark>
<Placemark>
<Style><LineStyle><width>1</width></LineStyle></Style>
<LineString><tessellate>1</tessellate><coordinates>
6.571874263,53.21930741,0
6.5708632829999996,53.21820001,0
</coordinates></LineString></Placemark>
<Placemark>
<Style><LineStyle><width>1</width></LineStyle></Style>
<LineString><tessellate>1</tessellate><coordinates>
6.5708632829999996,53.21820001,0
6.5706558479999995,53.21849623,0
</coordinates></LineString></Placemark>
<Placemark>
<Style><LineStyle><width>1</width></LineStyle></Style>
<LineString><tessellate>1</tessellate><coordinates>
6.573771174,53.22114978,0
6.573771174,53.22114978,0
</coordinates></LineString></Placemark>
<Placemark>
<Style><LineStyle><width>1</width></LineStyle></Style>
<LineString><tessellate>1</tessellate><coordinates>
6.573771174,53.22114978,0
6.573701362,53.22063019,0
</coordinates></LineString></Placemark>
<Placemark>
<Style><LineStyle><width>1</width></LineStyle></Style>
<LineString><tessellate>1</tessellate><coordinates>
6.573701362,53.22063019,0
6.574513527000001,53.2188394,0
</coordinates></LineString></Placemark>
<Placemark>
<Style><LineStyle><width>1</width></LineStyle></Style>
<LineString><tessellate>1</tessellate><coordinates>
6.574513527000001,53.2188394,0
6.5735244029999995,53.21912145,0
</coordinates></LineString></Placemark>
<Placemark>
<Style><LineStyle><width>1</width></LineStyle></Style>
<LineString><tessellate>1</tessellate><coordinates>
6.5735244029999995,53.21912145,0
6.573772813,53.21931076,0
</coordinates></LineString></Placemark>
<Placemark>
<Style><LineStyle><width>1</width></LineStyle></Style>
<LineString><tessellate>1</tessellate><coordinates>
6.573772813,53.21931076,0
6.572759656000001,53.22034441,0
</coordinates></LineString></Placemark>
<Placemark>
<Style><LineStyle><width>1</width></LineStyle></Style>
<LineString><tessellate>1</tessellate><coordinates>
6.572759656000001,53.22034441,0
6.573771174,53.22114978,0
</coordinates></LineString></Placemark>
<Placemark>
<Style><LineStyle><width>1</width></LineStyle></Style>
<LineString><tessellate>1</tessellate><coordinates>
0,0,0
6.572759656000001,53.22034441,0
</coordinates></LineString></Placemark>
<Placemark>
<Style><LineStyle><width>1</width></LineStyle></Style>
<LineString><tessellate>1</tessellate><coordinates>
6.5630051389999995,53.21495745,0
6.5630051389999995,53.21495745,0
</coordinates></LineString></Placemark>
<Placemark>
<Style><LineStyle><width>1</width></LineStyle></Style>
<LineString><tessellate>1</tessellate><coordinates>
6.5630051389999995,53.21495745,0
6.5636912270000005,53.21438932,0
</coordinates></LineString></Placemark>
<Placemark>
<Style><LineStyle><width>1</width></LineStyle></Style>
<LineString><tessellate>1</tessellate><coordinates>
6.5636912270000005,53.21438932,0
6.5636912270000005,53.21438932,0
</coordinates></LineString></Placemark>
<Placemark>
<Style><LineStyle><width>1</width></LineStyle></Style>
<LineString><tessellate>1</tessellate><coordinates>
6.5636912270000005,53.21438932,0
6.565817103,53.21504974,0
</coordinates></LineString></Placemark>
<Placemark>
<Style><LineStyle><width>1</width></LineStyle></Style>
<LineString><tessellate>1</tessellate><coordinates>
6.565817103,53.21504974,0
6.567373335,53.21580341,0
</coordinates></LineString></Placemark>
<Placemark>
<Style><LineStyle><width>1</width></LineStyle></Style>
<LineString><tessellate>1</tessellate><coordinates>
6.567373335,53.21580341,0
6.5658733620000005,53.2155365,0
</coordinates></LineString></Placemark>
<Placemark>
<Style><LineStyle><width>1</width></LineStyle></Style>
<LineString><tessellate>1</tessellate><coordinates>
6.5658733620000005,53.2155365,0
6.564991691,53.21563215,0
</coordinates></LineString></Placemark>
<Placemark>
<Style><LineStyle><width>1</width></LineStyle></Style>
<LineString><tessellate>1</tessellate><coordinates>
6.564991691,53.21563215,0
6.564010282999999,53.21521538,0
</coordinates></LineString></Placemark>
<Placemark>
<Style><LineStyle><width>1</width></LineStyle></Style>
<LineString><tessellate>1</tessellate><coordinates>
6.564010282999999,53.21521538,0
6.5630051389999995,53.21495745,0
</coordinates></LineString></Placemark>
<Placemark>
<Style><LineStyle><width>1</width></LineStyle></Style>
<LineString><tessellate>1</tessellate><coordinates>
6.568813871000001,53.21528495,0
6.568813871000001,53.21528495,0
</coordinates></LineString></Placemark>
<Placemark>
<Style><LineStyle><width>1</width></LineStyle></Style>
<LineString><tessellate>1</tessellate><coordinates>
6.568813871000001,53.21528495,0
6.569100333,53.21449927,0
</coordinates></LineString></Placemark>
<Placemark>
<Style><LineStyle><width>1</width></LineStyle></Style>
<LineString><tessellate>1</tessellate><coordinates>
6.569100333,53.21449927,0
6.568404237999999,53.21429163,0
</coordinates></LineString></Placemark>
<Placemark>
<Style><LineStyle><width>1</width></LineStyle></Style>
<LineString><tessellate>1</tessellate><coordinates>
6.568404237999999,53.21429163,0
6.568092046,53.21436481,0
</coordinates></LineString></Placemark>
<Placemark>
<Style><LineStyle><width>1</width></LineStyle></Style>
<LineString><tessellate>1</tessellate><coordinates>
6.568092046,53.21436481,0
6.567266099999999,53.21417809,0
</coordinates></LineString></Placemark>
<Placemark>
<Style><LineStyle><width>1</width></LineStyle></Style>
<LineString><tessellate>1</tessellate><coordinates>
6.567266099999999,53.21417809,0
6.567150079,53.21415379999999,0
</coordinates></LineString></Placemark>
<Placemark>
<Style><LineStyle><width>1</width></LineStyle></Style>
<LineString><tessellate>1</tessellate><coordinates>
6.567150079,53.21415379999999,0
6.566976267,53.2136155,0
</coordinates></LineString></Placemark>
<Placemark>
<Style><LineStyle><width>1</width></LineStyle></Style>
<LineString><tessellate>1</tessellate><coordinates>
6.566976267,53.2136155,0
6.567623875,53.21260405,0
</coordinates></LineString></Placemark>
<Placemark>
<Style><LineStyle><width>1</width></LineStyle></Style>
<LineString><tessellate>1</tessellate><coordinates>
6.567623875,53.21260405,0
6.5655403429999994,53.21320742,0
</coordinates></LineString></Placemark>
<Placemark>
<Style><LineStyle><width>1</width></LineStyle></Style>
<LineString><tessellate>1</tessellate><coordinates>
6.5655403429999994,53.21320742,0
6.566614965,53.21397432,0
</coordinates></LineString></Placemark>
<Placemark>
<Style><LineStyle><width>1</width></LineStyle></Style>
<LineString><tessellate>1</tessellate><coordinates>
6.566614965,53.21397432,0
6.56661726,53.2143165,0
</coordinates></LineString></Placemark>
<Placemark>
<Style><LineStyle><width>1</width></LineStyle></Style>
<LineString><tessellate>1</tessellate><coordinates>
6.56661726,53.2143165,0
6.567330784,53.21532625,0
</coordinates></LineString></Placemark>
<Placemark>
<Style><LineStyle><width>1</width></LineStyle></Style>
<LineString><tessellate>1</tessellate><coordinates>
6.567330784,53.21532625,0
6.568813871000001,53.21528495,0
</coordinates></LineString></Placemark>
<Placemark>
<Style><LineStyle><width>1</width></LineStyle></Style>
<LineString><tessellate>1</tessellate><coordinates>
6.574660144,53.21552328,0
6.574660144,53.21552328,0
</coordinates></LineString></Placemark>
<Placemark>
<Style><LineStyle><width>1</width></LineStyle></Style>
<LineString><tessellate>1</tessellate><coordinates>
6.574660144,53.21552328,0
6.574930372000001,53.21537592,0
</coordinates></LineString></Placemark>
<Placemark>
<Style><LineStyle><width>1</width></LineStyle></Style>
<LineString><tessellate>1</tessellate><coordinates>
6.574930372000001,53.21537592,0
6.573921447000001,53.21517135,0
</coordinates></LineString></Placemark>
<Placemark>
<Style><LineStyle><width>1</width></LineStyle></Style>
<LineString><tessellate>1</tessellate><coordinates>
6.573921447000001,53.21517135,0
6.572605146,53.21599037,0
</coordinates></LineString></Placemark>
<Placemark>
<Style><LineStyle><width>1</width></LineStyle></Style>
<LineString><tessellate>1</tessellate><coordinates>
6.572605146,53.21599037,0
6.571783121,53.21582348,0
</coordinates></LineString></Placemark>
<Placemark>
<Style><LineStyle><width>1</width></LineStyle></Style>
<LineString><tessellate>1</tessellate><coordinates>
6.571783121,53.21582348,0
6.572468304,53.21655193,0
</coordinates></LineString></Placemark>
<Placemark>
<Style><LineStyle><width>1</width></LineStyle></Style>
<LineString><tessellate>1</tessellate><coordinates>
6.572468304,53.21655193,0
6.572891499999999,53.21719283,0
</coordinates></LineString></Placemark>
<Placemark>
<Style><LineStyle><width>1</width></LineStyle></Style>
<LineString><tessellate>1</tessellate><coordinates>
6.572891499999999,53.21719283,0
6.573187148,53.21680834,0
</coordinates></LineString></Placemark>
<Placemark>
<Style><LineStyle><width>1</width></LineStyle></Style>
<LineString><tessellate>1</tessellate><coordinates>
6.573187148,53.21680834,0
6.573605564,53.2159689,0
</coordinates></LineString></Placemark>
<Placemark>
<Style><LineStyle><width>1</width></LineStyle></Style>
<LineString><tessellate>1</tessellate><coordinates>
6.573605564,53.2159689,0
6.574660144,53.21552328,0
</coordinates></LineString></Placemark>
<Placemark>
<Style><LineStyle><width>1</width></LineStyle></Style>
<LineString><tessellate>1</tessellate><coordinates>
6.569456253999999,53.21633955,0
6.569456253999999,53.21633955,0
</coordinates></LineString></Placemark>
<Placemark>
<Style><LineStyle><width>1</width></LineStyle></Style>
<LineString><tessellate>1</tessellate><coordinates>
6.569456253999999,53.21633955,0
6.569827006000001,53.21634244,0
</coordinates></LineString></Placemark>
<Placemark>
<Style><LineStyle><width>1</width></LineStyle></Style>
<LineString><tessellate>1</tessellate><coordinates>
6.569827006000001,53.21634244,0
6.5700751639999995,53.21488331,0
</coordinates></LineString></Placemark>
<Placemark>
<Style><LineStyle><width>1</width></LineStyle></Style>
<LineString><tessellate>1</tessellate><coordinates>
6.5700751639999995,53.21488331,0
6.57116828,53.21343804,0
</coordinates></LineString></Placemark>
<Placemark>
<Style><LineStyle><width>1</width></LineStyle></Style>
<LineString><tessellate>1</tessellate><coordinates>
6.57116828,53.21343804,0
6.5715882070000005,53.2141243,0
</coordinates></LineString></Placemark>
<Placemark>
<Style><LineStyle><width>1</width></LineStyle></Style>
<LineString><tessellate>1</tessellate><coordinates>
6.5715882070000005,53.2141243,0
6.571668992,53.21464858,0
</coordinates></LineString></Placemark>
<Placemark>
<Style><LineStyle><width>1</width></LineStyle></Style>
<LineString><tessellate>1</tessellate><coordinates>
6.571668992,53.21464858,0
6.571446307,53.21489591,0
</coordinates></LineString></Placemark>
<Placemark>
<Style><LineStyle><width>1</width></LineStyle></Style>
<LineString><tessellate>1</tessellate><coordinates>
6.571446307,53.21489591,0
6.570875729,53.21646744,0
</coordinates></LineString></Placemark>
<Placemark>
<Style><LineStyle><width>1</width></LineStyle></Style>
<LineString><tessellate>1</tessellate><coordinates>
6.570875729,53.21646744,0
6.570875729,53.21646744,0
</coordinates></LineString></Placemark>
<Placemark>
<Style><LineStyle><width>1</width></LineStyle></Style>
<LineString><tessellate>1</tessellate><coordinates>
6.570875729,53.21646744,0
6.57073705,53.21683813,0
</coordinates></LineString></Placemark>
<Placemark>
<Style><LineStyle><width>1</width></LineStyle></Style>
<LineString><tessellate>1</tessellate><coordinates>
6.57073705,53.21683813,0
6.56911433,53.21670902,0
</coordinates></LineString></Placemark>
<Placemark>
<Style><LineStyle><width>1</width></LineStyle></Style>
<LineString><tessellate>1</tessellate><coordinates>
6.56911433,53.21670902,0
6.569456253999999,53.21633955,0
</coordinates></LineString></Placemark>
<Placemark>
<Style><LineStyle><width>1</width></LineStyle></Style>
<LineString><tessellate>1</tessellate><coordinates>
6.579213919,53.22915352,0
6.579213919,53.22915352,0
</coordinates></LineString></Placemark>
<Placemark>
<Style><LineStyle><width>1</width></LineStyle></Style>
<LineString><tessellate>1</tessellate><coordinates>
6.579213919,53.22915352,0
6.579474932999999,53.22822684,0
</coordinates></LineString></Placemark>
<Placemark>
<Style><LineStyle><width>1</width></LineStyle></Style>
<LineString><tessellate>1</tessellate><coordinates>
6.579474932999999,53.22822684,0
6.580392925,53.22681183,0
</coordinates></LineString></Placemark>
<Placemark>
<Style><LineStyle><width>1</width></LineStyle></Style>
<LineString><tessellate>1</tessellate><coordinates>
6.580392925,53.22681183,0
6.579278316,53.22770982,0
</coordinates></LineString></Placemark>
<Placemark>
<Style><LineStyle><width>1</width></LineStyle></Style>
<LineString><tessellate>1</tessellate><coordinates>
6.579278316,53.22770982,0
6.5789112670000005,53.22797062,0
</coordinates></LineString></Placemark>
<Placemark>
<Style><LineStyle><width>1</width></LineStyle></Style>
<LineString><tessellate>1</tessellate><coordinates>
6.5789112670000005,53.22797062,0
6.579213919,53.22915352,0
</coordinates></LineString></Placemark>
<Placemark>
<Style><LineStyle><width>1</width></LineStyle></Style>
<LineString><tessellate>1</tessellate><coordinates>
6.5797827920000005,53.22649048,0
6.5797827920000005,53.22649048,0
</coordinates></LineString></Placemark>
<Placemark>
<Style><LineStyle><width>1</width></LineStyle></Style>
<LineString><tessellate>1</tessellate><coordinates>
6.5797827920000005,53.22649048,0
6.5797827920000005,53.22649048,0
</coordinates></LineString></Placemark>
<Placemark>
<Style><LineStyle><width>1</width></LineStyle></Style>
<LineString><tessellate>1</tessellate><coordinates>
6.5797827920000005,53.22649048,0
6.580973231000001,53.22705493,0
</coordinates></LineString></Placemark>
<Placemark>
<Style><LineStyle><width>1</width></LineStyle></Style>
<LineString><tessellate>1</tessellate><coordinates>
6.580973231000001,53.22705493,0
6.5797827920000005,53.22649048,0
</coordinates></LineString></Placemark>
<Placemark>
<Style><LineStyle><width>1</width></LineStyle></Style>
<LineString><tessellate>1</tessellate><coordinates>
6.569235121,53.21966508,0
6.569235121,53.21966508,0
</coordinates></LineString></Placemark>
<Placemark>
<Style><LineStyle><width>1</width></LineStyle></Style>
<LineString><tessellate>1</tessellate><coordinates>
6.569235121,53.21966508,0
6.56775218,53.22003068,0
</coordinates></LineString></Placemark>
<Placemark>
<Style><LineStyle><width>1</width></LineStyle></Style>
<LineString><tessellate>1</tessellate><coordinates>
6.56775218,53.22003068,0
6.56738616,53.21921491,0
</coordinates></LineString></Placemark>
<Placemark>
<Style><LineStyle><width>1</width></LineStyle></Style>
<LineString><tessellate>1</tessellate><coordinates>
6.56738616,53.21921491,0
6.565791663,53.21885821,0
</coordinates></LineString></Placemark>
<Placemark>
<Style><LineStyle><width>1</width></LineStyle></Style>
<LineString><tessellate>1</tessellate><coordinates>
6.565791663,53.21885821,0
6.567075542,53.21796002,0
</coordinates></LineString></Placemark>
<Placemark>
<Style><LineStyle><width>1</width></LineStyle></Style>
<LineString><tessellate>1</tessellate><coordinates>
6.567075542,53.21796002,0
6.568085257000001,53.21823167,0
</coordinates></LineString></Placemark>
<Placemark>
<Style><LineStyle><width>1</width></LineStyle></Style>
<LineString><tessellate>1</tessellate><coordinates>
6.568085257000001,53.21823167,0
6.569235121,53.21966508,0
</coordinates></LineString></Placemark>
<Placemark>
<Style><LineStyle><width>1</width></LineStyle></Style>
<LineString><tessellate>1</tessellate><coordinates>
6.565573118,53.21643268,0
6.565573118,53.21643268,0
</coordinates></LineString></Placemark>
<Placemark>
<Style><LineStyle><width>1</width></LineStyle></Style>
<LineString><tessellate>1</tessellate><coordinates>
6.565573118,53.21643268,0
6.565424814,53.21714866,0
</coordinates></LineString></Placemark>
<Placemark>
<Style><LineStyle><width>1</width></LineStyle></Style>
<LineString><tessellate>1</tessellate><coordinates>
6.565424814,53.21714866,0
6.565432106,53.21769683,0
</coordinates></LineString></Placemark>
<Placemark>
<Style><LineStyle><width>1</width></LineStyle></Style>
<LineString><tessellate>1</tessellate><coordinates>
6.565432106,53.21769683,0
6.564696700000001,53.21835814,0
</coordinates></LineString></Placemark>
<Placemark>
<Style><LineStyle><width>1</width></LineStyle></Style>
<LineString><tessellate>1</tessellate><coordinates>
6.564696700000001,53.21835814,0
6.564566837999999,53.21682979999999,0
</coordinates></LineString></Placemark>
<Placemark>
<Style><LineStyle><width>1</width></LineStyle></Style>
<LineString><tessellate>1</tessellate><coordinates>
6.564566837999999,53.21682979999999,0
6.565573118,53.21643268,0
</coordinates></LineString></Placemark>
<Placemark>
<Style><LineStyle><width>1</width></LineStyle></Style>
<LineString><tessellate>1</tessellate><coordinates>
6.565791663,53.21885821,0
0,0,0
</coordinates></LineString></Placemark>
<Placemark>
<Style><LineStyle><width>1</width></LineStyle></Style>
<LineString><tessellate>1</tessellate><coordinates>
6.588765305,53.22784488,0
6.588765305,53.22784488,0
</coordinates></LineString></Placemark>
<Placemark>
<Style><LineStyle><width>1</width></LineStyle></Style>
<LineString><tessellate>1</tessellate><coordinates>
6.588765305,53.22784488,0
6.589558007999999,53.22813619,0
</coordinates></LineString></Placemark>
<Placemark>
<Style><LineStyle><width>1</width></LineStyle></Style>
<LineString><tessellate>1</tessellate><coordinates>
6.589558007999999,53.22813619,0
6.586788583,53.22542123,0
</coordinates></LineString></Placemark>
<Placemark>
<Style><LineStyle><width>1</width></LineStyle></Style>
<LineString><tessellate>1</tessellate><coordinates>
6.586788583,53.22542123,0
6.58705157,53.2251142,0
</coordinates></LineString></Placemark>
<Placemark>
<Style><LineStyle><width>1</width></LineStyle></Style>
<LineString><tessellate>1</tessellate><coordinates>
6.58705157,53.2251142,0
6.586874764,53.2249364,0
</coordinates></LineString></Placemark>
<Placemark>
<Style><LineStyle><width>1</width></LineStyle></Style>
<LineString><tessellate>1</tessellate><coordinates>
6.586874764,53.2249364,0
6.585798083999999,53.22516545,0
</coordinates></LineString></Placemark>
<Placemark>
<Style><LineStyle><width>1</width></LineStyle></Style>
<LineString><tessellate>1</tessellate><coordinates>
6.585798083999999,53.22516545,0
6.58526965,53.22589868,0
</coordinates></LineString></Placemark>
<Placemark>
<Style><LineStyle><width>1</width></LineStyle></Style>
<LineString><tessellate>1</tessellate><coordinates>
6.58526965,53.22589868,0
6.585895271,53.22569097,0
</coordinates></LineString></Placemark>
<Placemark>
<Style><LineStyle><width>1</width></LineStyle></Style>
<LineString><tessellate>1</tessellate><coordinates>
6.585895271,53.22569097,0
6.585709969,53.22622416,0
</coordinates></LineString></Placemark>
<Placemark>
<Style><LineStyle><width>1</width></LineStyle></Style>
<LineString><tessellate>1</tessellate><coordinates>
6.585709969,53.22622416,0
6.58814536,53.22777639,0
</coordinates></LineString></Placemark>
<Placemark>
<Style><LineStyle><width>1</width></LineStyle></Style>
<LineString><tessellate>1</tessellate><coordinates>
6.58814536,53.22777639,0
6.588765305,53.22784488,0
</coordinates></LineString></Placemark>
<Placemark>
<Style><LineStyle><width>1</width></LineStyle></Style>
<LineString><tessellate>1</tessellate><coordinates>
6.5858722279999995,53.22328263,0
6.5858722279999995,53.22328263,0
</coordinates></LineString></Placemark>
<Placemark>
<Style><LineStyle><width>1</width></LineStyle></Style>
<LineString><tessellate>1</tessellate><coordinates>
6.5858722279999995,53.22328263,0
6.5863255,53.2235127,0
</coordinates></LineString></Placemark>
<Placemark>
<Style><LineStyle><width>1</width></LineStyle></Style>
<LineString><tessellate>1</tessellate><coordinates>
6.5863255,53.2235127,0
6.585268919,53.2248366,0
</coordinates></LineString></Placemark>
<Placemark>
<Style><LineStyle><width>1</width></LineStyle></Style>
<LineString><tessellate>1</tessellate><coordinates>
6.585268919,53.2248366,0
6.587076375,53.22442045,0
</coordinates></LineString></Placemark>
<Placemark>
<Style><LineStyle><width>1</width></LineStyle></Style>
<LineString><tessellate>1</tessellate><coordinates>
6.587076375,53.22442045,0
6.586791786,53.223802500000005,0
</coordinates></LineString></Placemark>
<Placemark>
<Style><LineStyle><width>1</width></LineStyle></Style>
<LineString><tessellate>1</tessellate><coordinates>
6.586791786,53.223802500000005,0
6.587476700000001,53.22420793,0
</coordinates></LineString></Placemark>
<Placemark>
<Style><LineStyle><width>1</width></LineStyle></Style>
<LineString><tessellate>1</tessellate><coordinates>
6.587476700000001,53.22420793,0
6.591623895,53.22423329,0
</coordinates></LineString></Placemark>
<Placemark>
<Style><LineStyle><width>1</width></LineStyle></Style>
<LineString><tessellate>1</tessellate><coordinates>
6.591623895,53.22423329,0
6.587367818,53.223154599999994,0
</coordinates></LineString></Placemark>
<Placemark>
<Style><LineStyle><width>1</width></LineStyle></Style>
<LineString><tessellate>1</tessellate><coordinates>
6.587367818,53.223154599999994,0
6.5870117210000005,53.22306351,0
</coordinates></LineString></Placemark>
<Placemark>
<Style><LineStyle><width>1</width></LineStyle></Style>
<LineString><tessellate>1</tessellate><coordinates>
6.5870117210000005,53.22306351,0
6.586237667000001,53.22195631,0
</coordinates></LineString></Placemark>
<Placemark>
<Style><LineStyle><width>1</width></LineStyle></Style>
<LineString><tessellate>1</tessellate><coordinates>
6.586237667000001,53.22195631,0
6.5858722279999995,53.22328263,0
</coordinates></LineString></Placemark>
<Placemark>
<Style><LineStyle><width>1</width></LineStyle></Style>
<LineString><tessellate>1</tessellate><coordinates>
6.560474749,53.21995226,0
6.560474749,53.21995226,0
</coordinates></LineString></Placemark>
<Placemark>
<Style><LineStyle><width>1</width></LineStyle></Style>
<LineString><tessellate>1</tessellate><coordinates>
6.560474749,53.21995226,0
6.561641029,53.21949142,0
</coordinates></LineString></Placemark>
<Placemark>
<Style><LineStyle><width>1</width></LineStyle></Style>
<LineString><tessellate>1</tessellate><coordinates>
6.561641029,53.21949142,0
6.562160246,53.22051898,0
</coordinates></LineString></Placemark>
<Placemark>
<Style><LineStyle><width>1</width></LineStyle></Style>
<LineString><tessellate>1</tessellate><coordinates>
6.562160246,53.22051898,0
6.562088178,53.22061987,0
</coordinates></LineString></Placemark>
<Placemark>
<Style><LineStyle><width>1</width></LineStyle></Style>
<LineString><tessellate>1</tessellate><coordinates>
6.562088178,53.22061987,0
6.562088178,53.22061987,0
</coordinates></LineString></Placemark>
<Placemark>
<Style><LineStyle><width>1</width></LineStyle></Style>
<LineString><tessellate>1</tessellate><coordinates>
6.562088178,53.22061987,0
6.561484686,53.22108872,0
</coordinates></LineString></Placemark>
<Placemark>
<Style><LineStyle><width>1</width></LineStyle></Style>
<LineString><tessellate>1</tessellate><coordinates>
6.561484686,53.22108872,0
6.560930371,53.22145382,0
</coordinates></LineString></Placemark>
<Placemark>
<Style><LineStyle><width>1</width></LineStyle></Style>
<LineString><tessellate>1</tessellate><coordinates>
6.560930371,53.22145382,0
6.561270764,53.22037001,0
</coordinates></LineString></Placemark>
<Placemark>
<Style><LineStyle><width>1</width></LineStyle></Style>
<LineString><tessellate>1</tessellate><coordinates>
6.561270764,53.22037001,0
6.560474749,53.21995226,0
</coordinates></LineString></Placemark>
<Placemark>
<Style><LineStyle><width>1</width></LineStyle></Style>
<LineString><tessellate>1</tessellate><coordinates>
6.56482326,53.22160473,0
6.56482326,53.22160473,0
</coordinates></LineString></Placemark>
<Placemark>
<Style><LineStyle><width>1</width></LineStyle></Style>
<LineString><tessellate>1</tessellate><coordinates>
6.56482326,53.22160473,0
6.564610345,53.22143813,0
</coordinates></LineString></Placemark>
<Placemark>
<Style><LineStyle><width>1</width></LineStyle></Style>
<LineString><tessellate>1</tessellate><coordinates>
6.564610345,53.22143813,0
6.563967217,53.22125273,0
</coordinates></LineString></Placemark>
<Placemark>
<Style><LineStyle><width>1</width></LineStyle></Style>
<LineString><tessellate>1</tessellate><coordinates>
6.563967217,53.22125273,0
6.563763056,53.22110688,0
</coordinates></LineString></Placemark>
<Placemark>
<Style><LineStyle><width>1</width></LineStyle></Style>
<LineString><tessellate>1</tessellate><coordinates>
6.563763056,53.22110688,0
6.563668941,53.22048816,0
</coordinates></LineString></Placemark>
<Placemark>
<Style><LineStyle><width>1</width></LineStyle></Style>
<LineString><tessellate>1</tessellate><coordinates>
6.563668941,53.22048816,0
6.564848594,53.22049307,0
</coordinates></LineString></Placemark>
<Placemark>
<Style><LineStyle><width>1</width></LineStyle></Style>
<LineString><tessellate>1</tessellate><coordinates>
6.564848594,53.22049307,0
6.565763817000001,53.22011444,0
</coordinates></LineString></Placemark>
<Placemark>
<Style><LineStyle><width>1</width></LineStyle></Style>
<LineString><tessellate>1</tessellate><coordinates>
6.565763817000001,53.22011444,0
6.565809237000001,53.22068476,0
</coordinates></LineString></Placemark>
<Placemark>
<Style><LineStyle><width>1</width></LineStyle></Style>
<LineString><tessellate>1</tessellate><coordinates>
6.565809237000001,53.22068476,0
6.564850237999999,53.22082577,0
</coordinates></LineString></Placemark>
<Placemark>
<Style><LineStyle><width>1</width></LineStyle></Style>
<LineString><tessellate>1</tessellate><coordinates>
6.564850237999999,53.22082577,0
6.5648015829999995,53.22098833,0
</coordinates></LineString></Placemark>
<Placemark>
<Style><LineStyle><width>1</width></LineStyle></Style>
<LineString><tessellate>1</tessellate><coordinates>
6.5648015829999995,53.22098833,0
6.56482326,53.22160473,0
</coordinates></LineString></Placemark>
<Placemark>
<Style><LineStyle><width>1</width></LineStyle></Style>
<LineString><tessellate>1</tessellate><coordinates>
6.578375200000001,53.22368995,0
6.578375200000001,53.22368995,0
</coordinates></LineString></Placemark>
<Placemark>
<Style><LineStyle><width>1</width></LineStyle></Style>
<LineString><tessellate>1</tessellate><coordinates>
6.578375200000001,53.22368995,0
6.578237291000001,53.22393489,0
</coordinates></LineString></Placemark>
<Placemark>
<Style><LineStyle><width>1</width></LineStyle></Style>
<LineString><tessellate>1</tessellate><coordinates>
6.578237291000001,53.22393489,0
6.57634604,53.22614358,0
</coordinates></LineString></Placemark>
<Placemark>
<Style><LineStyle><width>1</width></LineStyle></Style>
<LineString><tessellate>1</tessellate><coordinates>
6.57634604,53.22614358,0
6.573684096,53.22611261,0
</coordinates></LineString></Placemark>
<Placemark>
<Style><LineStyle><width>1</width></LineStyle></Style>
<LineString><tessellate>1</tessellate><coordinates>
6.573684096,53.22611261,0
6.575114442,53.22503752,0
</coordinates></LineString></Placemark>
<Placemark>
<Style><LineStyle><width>1</width></LineStyle></Style>
<LineString><tessellate>1</tessellate><coordinates>
6.575114442,53.22503752,0
6.57681531,53.22428218,0
</coordinates></LineString></Placemark>
<Placemark>
<Style><LineStyle><width>1</width></LineStyle></Style>
<LineString><tessellate>1</tessellate><coordinates>
6.57681531,53.22428218,0
6.578375200000001,53.22368995,0
</coordinates></LineString></Placemark>
<Placemark>
<Style><LineStyle><width>1</width></LineStyle></Style>
<LineString><tessellate>1</tessellate><coordinates>
6.572959665,53.22730492,0
6.572959665,53.22730492,0
</coordinates></LineString></Placemark>
<Placemark>
<Style><LineStyle><width>1</width></LineStyle></Style>
<LineString><tessellate>1</tessellate><coordinates>
6.572959665,53.22730492,0
6.573690116,53.22762304,0
</coordinates></LineString></Placemark>
<Placemark>
<Style><LineStyle><width>1</width></LineStyle></Style>
<LineString><tessellate>1</tessellate><coordinates>
6.573690116,53.22762304,0
6.574889615,53.22745104,0
</coordinates></LineString></Placemark>
<Placemark>
<Style><LineStyle><width>1</width></LineStyle></Style>
<LineString><tessellate>1</tessellate><coordinates>
6.574889615,53.22745104,0
6.576568025,53.22740467,0
</coordinates></LineString></Placemark>
<Placemark>
<Style><LineStyle><width>1</width></LineStyle></Style>
<LineString><tessellate>1</tessellate><coordinates>
6.576568025,53.22740467,0
6.577019582999999,53.22790023,0
</coordinates></LineString></Placemark>
<Placemark>
<Style><LineStyle><width>1</width></LineStyle></Style>
<LineString><tessellate>1</tessellate><coordinates>
6.577019582999999,53.22790023,0
6.576122572999999,53.22815789,0
</coordinates></LineString></Placemark>
<Placemark>
<Style><LineStyle><width>1</width></LineStyle></Style>
<LineString><tessellate>1</tessellate><coordinates>
6.576122572999999,53.22815789,0
6.575351737,53.22857465,0
</coordinates></LineString></Placemark>
<Placemark>
<Style><LineStyle><width>1</width></LineStyle></Style>
<LineString><tessellate>1</tessellate><coordinates>
6.575351737,53.22857465,0
6.57349308,53.228035899999995,0
</coordinates></LineString></Placemark>
<Placemark>
<Style><LineStyle><width>1</width></LineStyle></Style>
<LineString><tessellate>1</tessellate><coordinates>
6.57349308,53.228035899999995,0
6.572959665,53.22730492,0
</coordinates></LineString></Placemark>
<Placemark>
<Style><LineStyle><width>1</width></LineStyle></Style>
<LineString><tessellate>1</tessellate><coordinates>
6.565327547000001,53.22796245,0
6.565327547000001,53.22796245,0
</coordinates></LineString></Placemark>
<Placemark>
<Style><LineStyle><width>1</width></LineStyle></Style>
<LineString><tessellate>1</tessellate><coordinates>
6.565327547000001,53.22796245,0
6.566881469,53.22659712,0
</coordinates></LineString></Placemark>
<Placemark>
<Style><LineStyle><width>1</width></LineStyle></Style>
<LineString><tessellate>1</tessellate><coordinates>
6.566881469,53.22659712,0
6.566158937000001,53.22654894,0
</coordinates></LineString></Placemark>
<Placemark>
<Style><LineStyle><width>1</width></LineStyle></Style>
<LineString><tessellate>1</tessellate><coordinates>
6.566158937000001,53.22654894,0
6.5652538620000005,53.22684617,0
</coordinates></LineString></Placemark>
<Placemark>
<Style><LineStyle><width>1</width></LineStyle></Style>
<LineString><tessellate>1</tessellate><coordinates>
6.5652538620000005,53.22684617,0
6.565044602,53.22649502,0
</coordinates></LineString></Placemark>
<Placemark>
<Style><LineStyle><width>1</width></LineStyle></Style>
<LineString><tessellate>1</tessellate><coordinates>
6.565044602,53.22649502,0
6.563872138,53.22615924,0
</coordinates></LineString></Placemark>
<Placemark>
<Style><LineStyle><width>1</width></LineStyle></Style>
<LineString><tessellate>1</tessellate><coordinates>
6.563872138,53.22615924,0
6.562371088,53.22696782,0
</coordinates></LineString></Placemark>
<Placemark>
<Style><LineStyle><width>1</width></LineStyle></Style>
<LineString><tessellate>1</tessellate><coordinates>
6.562371088,53.22696782,0
6.563003217,53.22696372,0
</coordinates></LineString></Placemark>
<Placemark>
<Style><LineStyle><width>1</width></LineStyle></Style>
<LineString><tessellate>1</tessellate><coordinates>
6.563003217,53.22696372,0
6.565327547000001,53.22796245,0
</coordinates></LineString></Placemark>
<Placemark>
<Style><LineStyle><width>1</width></LineStyle></Style>
<LineString><tessellate>1</tessellate><coordinates>
6.564239642,53.2236892,0
6.564239642,53.2236892,0
</coordinates></LineString></Placemark>
<Placemark>
<Style><LineStyle><width>1</width></LineStyle></Style>
<LineString><tessellate>1</tessellate><coordinates>
6.564239642,53.2236892,0
6.563228621,53.22331666,0
</coordinates></LineString></Placemark>
<Placemark>
<Style><LineStyle><width>1</width></LineStyle></Style>
<LineString><tessellate>1</tessellate><coordinates>
6.563228621,53.22331666,0
6.563776446,53.22428463,0
</coordinates></LineString></Placemark>
<Placemark>
<Style><LineStyle><width>1</width></LineStyle></Style>
<LineString><tessellate>1</tessellate><coordinates>
6.563776446,53.22428463,0
6.563241291000001,53.22441866,0
</coordinates></LineString></Placemark>
<Placemark>
<Style><LineStyle><width>1</width></LineStyle></Style>
<LineString><tessellate>1</tessellate><coordinates>
6.563241291000001,53.22441866,0
6.562294500000001,53.22462508,0
</coordinates></LineString></Placemark>
<Placemark>
<Style><LineStyle><width>1</width></LineStyle></Style>
<LineString><tessellate>1</tessellate><coordinates>
6.562294500000001,53.22462508,0
6.563512795,53.22558675,0
</coordinates></LineString></Placemark>
<Placemark>
<Style><LineStyle><width>1</width></LineStyle></Style>
<LineString><tessellate>1</tessellate><coordinates>
6.563512795,53.22558675,0
6.564551429,53.22523299,0
</coordinates></LineString></Placemark>
<Placemark>
<Style><LineStyle><width>1</width></LineStyle></Style>
<LineString><tessellate>1</tessellate><coordinates>
6.564551429,53.22523299,0
6.564506022000001,53.22497711,0
</coordinates></LineString></Placemark>
<Placemark>
<Style><LineStyle><width>1</width></LineStyle></Style>
<LineString><tessellate>1</tessellate><coordinates>
6.564506022000001,53.22497711,0
6.564239642,53.2236892,0
</coordinates></LineString></Placemark>
</Document></kml>