6.549776353669149387e+01,5.600447292661368692e+01,1.818160833399999774e+03,0.000000000000000000e+00
4.970162536093995698e+01,6.199930299891067875e+01,4.542238888900000120e+02,0.000000000000000000e+00
5.400411247794595937e+01,4.530615892361640107e+01,1.101775277869999854e+03,0.000000000000000000e+00
4.299654334709446601e+01,2.500000000000001066e+01,1.120223055599999952e+03,0.000000000000000000e+00
5.248480013026838265e+01,1.796960026053691450e+01,1.592822499970000081e+03,0.000000000000000000e+00
7.043890000665138018e+01,2.504989994013760679e+01,7.852269444000000931e+02,0.000000000000000000e+00
8.187253535183087649e+01,3.847970525146392617e+01,7.712219444400000157e+02,0.000000000000000000e+00
7.141548143853137276e+01,4.223729487884308043e+01,5.281102777799999330e+02,0.000000000000000000e+00
6.314760660168733608e+01,4.627548493280526998e+01,1.028614444390000017e+03,0.000000000000000000e+00
6.549776353669149387e+01,5.600447292661368692e+01,1.818160833399999774e+03,0.000000000000000000e+00
2.958279277114380434e+01,9.554209253419681858e+00,2.246609166729999743e+03,1.000000000000000000e+00
1.973491848593284104e+01,1.173491848593280906e+01,2.823609444340000209e+03,1.000000000000000000e+00
1.913430783820875902e+01,2.500000000000000000e+01,2.274811389080000481e+03,1.000000000000000000e+00
5.635109041120486495e+00,2.136489095887945311e+01,9.884269444699998530e+02,1.000000000000000000e+00
7.574310338523672748e+00,3.578712422889091727e+01,8.669308333199999197e+02,1.000000000000000000e+00
2.059237445455968185e+01,4.177859003413946937e+01,1.843933611120000023e+03,1.000000000000000000e+00
3.650947941228431404e+01,5.250947941228427851e+01,4.309338888800000404e+02,1.000000000000000000e+00
3.404817010349794515e+01,3.195182989650206906e+01,1.157374166579999837e+03,1.000000000000000000e+00
2.773596565166759831e+01,2.000155634562816331e+01,3.427439166600000135e+03,1.000000000000000000e+00
4.086762438881958559e+01,1.077353414276009502e+01,3.335519999950000056e+03,1.000000000000000000e+00
2.958279277114380434e+01,9.554209253419681858e+00,2.246609166729999743e+03,1.000000000000000000e+00
